*** Life<Cell> 8x11 ***

Generation = 0, Population = 7.
-----0---0-
-----------
0----------
----------0
-------0---
-----------
-0-------0-
-----------

Generation = 8, Population = 17.
-.--.*-----
-11--------
1..*.--110-
-1--.-----0
1-*-0------
----------0
00---0-----
-----------

*** Life<Cell> 14x3 ***

Generation = 0, Population = 17.
--0
0-0
---
-00
---
-0-
0--
00-
0--
-00
00-
0--
0--
0--

*** Life<Cell> 2x12 ***

Generation = 0, Population = 15.
000-000000-0
00----00--0-

*** Life<Cell> 11x3 ***

Generation = 0, Population = 18.
000
0--
-00
00-
0-0
-00
--0
000
0--
-0-
---

Generation = 2, Population = 16.
0--
-10
10*
-0-
-0-
0--
1--
--0
*--
001
0--

Generation = 4, Population = 22.
00-
*10
.0.
000
-**
*1-
*11
01-
*-0
--.
*-1

Generation = 6, Population = 14.
--1
.1-
.-.
*0-
*..
.*-
.-*
*11
*1-
10.
.--

Generation = 8, Population = 10.
---
.--
*-.
*-1
*.*
..-
.-*
..-
**0
--.
.-1

*** Life<Cell> 8x8 ***

Generation = 0, Population = 11.
--------
-0----0-
0-0-0---
--------
-----0--
--------
-0-0---0
00------

*** Life<Cell> 13x8 ***

Generation = 0, Population = 20.
-----0--
-00-----
0-------
-0-0----
----0---
----0---
0-------
--00--00
0----0--
-0------
------00
--------
----00--

Generation = 1, Population = 50.
-00-0-0-
-110-0--
-000----
--------
-0--10--
0--010--
-0000-00
-0110-11
--000--0
--0--000
-0---011
----0000
---0110-

Generation = 2, Population = 39.
0--0-0-0
0*--0---
0-1-00--
--0000--
--0---0-
-0-----0
--1-10--
0---1--*
--11--0-
--1---11
0----1-*
-0------
--01**--

Generation = 3, Population = 47.
1-0-0---
1.--10-0
10*01-0-
001-1---
--1-1---
0-0-10--
0----10-
-0--*--.
00-*-010
00*-----
--0-0-1*
---00--0
--1-*.0-

Generation = 4, Population = 53.
*---1--0
-.--*10-
*1.-*0--
-1*0-00-
--------
1-1-----
1-1-1-10
011-*0-*
-11*01-1
-1.-00--
0-101-**
--011001
-0-1**--

Generation = 5, Population = 52.
.0-0*---
-*-0.*1-
*-.-.10-
--*11-10
00-0-00-
*-*01-00
-0--*1*-
-**1.-1*
-**.-*-*
-*.01---
-0-1*-.*
0----11-
0-1-..-0

Generation = 6, Population = 44.
.1--*-0-
-*-1..-0
.-.-.-1-
--***-*1
-1---110
*-.1--11
-110.-.0
0..*.0-*
0...-*1*
0*.-----
-1--.-*.
1-01-**1
1--1..--

Generation = 7, Population = 53.
.*0-.---
1.--.*1-
.1.-*1*0
--***0.-
-----*-1
*0.*1--*
1*-1.1.-
1..*.11*
-...0*-*
-*.--0-1
0*-1.-**
*01--***
*0-**.00

Generation = 8, Population = 49.
.*10.00-
-.1-*.--
.-*-.-.1
--**.1.-
011-1*-*
*-.**01.
*.--.*.-
****.*-*
0...1.1*
-**0-11-
-.1-*1..
.-*1-...
*-1**.--

Generation = 9, Population = 42.
.**1*110
-.-1**10
.1*-*1.-
0-...*.-
-----.1.
*-**.-*.
*.1-...0
*.**.*1*
1...-.-*
-**1----
-.--.-*.
.0.-1*..
.--.*.--

Generation = 10, Population = 49.
..**.**-
-.1-..*-
.**0.*.1
--..***-
--10-**.
.-**.0**
*.-1**.1
*.**..-*
*...-.-*
-***1-11
-*11*-..
.-.1-*..
.0-.**--

Generation = 11, Population = 37.
..**.**0
-.-1...-
.**1...-
-1.....-
-1--1...
.0...1.*
..1*.*.-
*.**..1*
*...1.-*
-...--*-
0**-.-*.
.-.*-*..
.-1.**0-

Generation = 12, Population = 46.
..***.*1
-*1-..*0
.*.-...-
0-.*...-
0-10-...
.1.*.**.
..-*.*.-
..*..***
.*.*-*1*
-...11*-
1**-.-*.
.0.*1...
.0-***10

Generation = 13, Population = 44.
.***.**-
1*--.**-
**.1...1
1-.*...-
11*11...
.-.*.**.
..-*...1
..**...*
..**1.-.
0..***.-
***-.-*.
.-..-..*
.1-*.*-1

Generation = 14, Population = 32.
***.***1
-.--.*.-
...**.*-
-1.....1
--.-**..
.1...**.
..-*...*
........
.*..-*-.
1....*.-
***-*-*.
*-..-..*
.--...-*

Generation = 15, Population = 38.
.*..****
1*11...0
....***-
1-.*..*-
--.1**..
.-...**.
..1...*.
........
....1.1.
*.*.***-
*..-.1*.
*-..1.**
.--...1.

*** Life<Cell> 15x3 ***

Generation = 0, Population = 16.
0--
---
00-
-0-
000
---
---
-0-
-0-
---
00-
0-0
---
0--
0-0

Generation = 8, Population = 20.
-.*
1..
.--
1**
*..
---
-00
-.-
..-
.*0
1*-
.1-
1**
*-0
.11

*** Life<Cell> 6x1 ***

Generation = 0, Population = 5.
0
0
0
0
0
-

Generation = 2, Population = 4.
-
0
-
0
*
1

Generation = 4, Population = 4.
-
0
0
*
*
.

Generation = 6, Population = 2.
*
*
-
.
.
.

Generation = 8, Population = 0.
.
.
-
.
.
.

Generation = 10, Population = 0.
.
.
-
.
.
.

Generation = 12, Population = 0.
.
.
-
.
.
.

*** Life<Cell> 3x4 ***

Generation = 0, Population = 9.
-000
-000
0-00

Generation = 3, Population = 8.
00--
-1-1
1011

Generation = 6, Population = 6.
.--0
0*-.
**-*

*** Life<Cell> 6x10 ***

Generation = 0, Population = 16.
----0-0-00
-----0-0-0
-0--------
--------00
---00-----
0-0---0-0-

*** Life<Cell> 5x7 ***

Generation = 0, Population = 11.
-0--0-0
00---0-
-0-----
-0-0---
----0-0

*** Life<Cell> 12x4 ***

Generation = 0, Population = 12.
----
--00
-00-
----
0---
--0-
0---
----
-00-
----
0--0
---0

Generation = 10, Population = 18.
--.-
.*1.
1*.1
0..*
**.*
.-**
0.-*
..-1
...1
-1..
-.-.
-.1.

*** Life<Cell> 15x4 ***

Generation = 0, Population = 12.
---0
---0
-0--
---0
----
----
--0-
0---
-0-0
0-00
----
---0
----
----
----

Generation = 2, Population = 21.
----
-1--
----
-1--
-00-
0--0
11-1
---1
-01-
01*-
-0-0
001-
----
---0
----

Generation = 4, Population = 24.
----
-1-1
-00-
1*--
-0--
*-0-
1*0-
--0.
---1
*1.-
--0-
**.-
-1-1
0-10
----

Generation = 6, Population = 25.
-10-
1.--
0--0
*.0-
1*-0
*0--
-.**
10-*
--1-
...-
--0-
...-
-.1*
0-.0
-0-1

Generation = 8, Population = 26.
-**-
*.--
0---
*.--
*.--
.011
-**.
**-.
1--1
...0
0-01
...1
-***
0-*-
--0.

Generation = 10, Population = 25.
-**-
*.--
0*--
*.-0
*.--
.-..
-***
.*1*
*0*.
.*.-
--*.
...-
0.*.
--.0
11*.

Generation = 12, Population = 22.
-**-
*.11
*.-1
*.10
..1-
*-.*
**..
**-.
.0..
...0
00..
...-
-...
--.-
.1..

Generation = 14, Population = 21.
-*.1
*.--
.*-1
.*-0
.**1
.-*.
..**
..-*
**.*
...0
--*.
...-
-...
0-.-
.1..

*** Life<Cell> 13x11 ***

Generation = 0, Population = 7.
-----------
-----------
-----------
-0---------
---0-------
0--0-------
-----------
-----------
-----------
-----0-----
-----------
--------0--
----------0

Generation = 8, Population = 36.
---.-------
1--*-1-----
---.-1-----
.0*--.1-01-
---1-*----1
--.-*.-*1--
-10.1.----*
...1--0-1.1
---*-0-----
.*-.-0----0
----------.
*0-----0.0.
--101---.-0

*** Life<Cell> 1x13 ***

Generation = 0, Population = 10.
-0000000-0-00

*** Life<Cell> 6x5 ***

Generation = 0, Population = 12.
-00--
0-0-0
0-0--
-0---
-0-00
-0---

Generation = 7, Population = 14.
.*0**
*.*0*
.-*.-
-.-.*
--..*
*-*.1

*** Life<Cell> 6x2 ***

Generation = 0, Population = 9.
00
00
00
-0
00
--

*** Life<Cell> 10x4 ***

Generation = 0, Population = 9.
----
--00
0---
0-0-
--0-
----
--0-
--0-
----
0---

Generation = 12, Population = 18.
.-1.
-..*
.-1.
**..
1**0
.**.
*0.1
--*0
.-.*
1---

*** Life<Cell> 3x2 ***

Generation = 0, Population = 6.
00
00
00

*** Life<Cell> 1x10 ***

Generation = 0, Population = 8.
0-00-00000

*** Life<Cell> 15x14 ***

Generation = 0, Population = 8.
----0---------
---------0----
-------------0
--------------
--------------
----------0---
--------------
--------------
---0----------
--------------
--------------
--------------
--------------
--------------
---0--0---0---

*** Life<Cell> 11x11 ***

Generation = 0, Population = 6.
-0----0----
-----------
--------0--
----0------
-----------
-----------
-----------
-----------
-----0-----
-----------
------0----

Generation = 12, Population = 44.
.1*10--*-..
-----10-.--
-1-..011.*1
.-*--0--.0.
0-1--*.-*-*
---1.0-*.-*
-1---**01-1
--*-1-*---0
------.-.-*
---0-01-110
.1--..*.-.-

*** Life<Cell> 9x12 ***

Generation = 0, Population = 22.
0------0-0--
----0-------
--0-00-0----
------0--00-
------0-000-
-----0------
-0-0-0--0---
---------0--
-----0------

*** Life<Cell> 9x4 ***

Generation = 0, Population = 5.
----
---0
----
--0-
-0-0
---0
----
----
----

Generation = 12, Population = 9.
0.**
-..*
-...
*..*
-.-.
*...
.*-.
--..
-0-.

*** Life<Cell> 12x4 ***

Generation = 0, Population = 13.
00-0
--0-
-0--
----
----
-0--
----
--0-
0-0-
--0-
---0
-0-0
