*** Life<FredkinCell> 40x33 ***

Generation = 0, Population = 3.
---------------------------------
---------------------------------
---------------------------------
---------------------------------
----------0--------0-------------
---------------------------------
---------------------------------
---------------------------------
---------------------------------
---------------------------------
---------------------------------
---------------------------------
---------------------------------
---------------------------------
---------------------------------
---------------------------------
---------------------------------
---------------------------------
---------------------------------
---------------------------------
---------------------------------
---------------------------------
---------------------------------
---------------------------------
---------------------------------
---------------------------------
---------------------------------
---------------------------------
---------------------------------
-------------------------------0-
---------------------------------
---------------------------------
---------------------------------
---------------------------------
---------------------------------
---------------------------------
---------------------------------
---------------------------------
---------------------------------
---------------------------------

Generation = 17, Population = 48.
---------------------------------
---------------------------------
---------------------------------
---00---------------------0----0-
--0131-------------------1-0--0-0
---00---------------------0----0-
---------------------------------
---------------------------------
---------------------------------
----------0--------0-------------
---------0-1------1-0------------
----------0--------0-------------
-------------------------------0-
------------------------------0-0
-------------------------------0-
---------------------------------
---------------------------------
---------------------------------
---------------------------------
----------0--------0-------------
---------0-0------0-0------------
----------0--------0-------------
---------------------------------
---------------------------------
---------------------------------
---------------------------------
---------------------------------
---------------------------------
---------------0---0-------------
--------------0-0-0-0------------
---------------0---0-------------
---------------------------------
---------------------------------
---------------------------------
-------------------------------0-
------------------------------0-0
-------------------------------0-
---------------------------------
---------------------------------
---------------------------------

Generation = 34, Population = 37.
---------------------------------
-----------------------------0---
-----------3---6----1---2--------
-------------------------------2-
---------2-------22-------2------
---------------------------------
-----------6---3----2---1--------
---------------------------------
---------------------------------
---------------------------------
---------------------------------
---------------------------------
---------------------------------
---------------------------------
---------------------------------
---------------------------------
---------------------------------
-------------------------------1-
---------------------------------
-----------------------------0---
---------------------------------
-------------------------------3-
---------------------------------
---------------------------------
----------3--------3-------------
---------------------------------
--------0---0----0---0-----------
---0-----------------------------
----------0--------0-------------
-0---0---------------------------
---------------------------------
---0-----------------------------
---------------------------------
---------------------------------
----------0--------1-------------
---------------------------------
--------0---0----0---0-----------
---------------------------------
----------0--------0-------------
---------------------------------

*** Life<FredkinCell> 30x26 ***

Generation = 0, Population = 15.
--------------------------
--------------------------
-------------------------0
---------------0----------
0---------0---------------
----------0---------------
--------------------------
--------------------------
--------------------------
--------------------------
--------------------------
-----------0--------------
----------0---------------
---------0----------------
--------------------------
--------------------------
--------------------------
--------------------------
--------------------------
--------------------------
--------0-----------------
-----0--------------------
--------------------------
--------------------------
---0------0---------------
--------------------------
--------------------------
--------------------------
-------0-----------0------
-------------0------------

Generation = 7, Population = 275.
-0-0---01--010-----00-0---
0---0-001022-00---010--0--
------100-3-0-10-002-1--0-
----00-0-1-1-1-0--000-0--0
---0003-2-102-1-1--001----
---020-020-020-2-00-00----
----1-200-2-002-00-0--0---
----0010-0-1-0200-0----0--
---0--0-0-0-0-0--0------0-
--0---00-1-0-00----------0
-0---0-00-0-00-0-0--------
0---0-0-00-00-0---0-------
-----0-0-000-0-0----------
--0---0---0-0-0-0---------
---0-0-----0-0-0----------
------------0-0-----------
---0-0-------0------------
--01--0---0---------------
-00-1--0-0-0-0------------
01-0-1----0---0-----------
0-2-1-10---0---0----------
-0-3-00-0-0-0------0------
-00-10-0-0-0-0-0--0-0-----
0-000-0-0-0-0---00-0-0----
-0---1-0-0-0-0--110-0-0---
--0---010-010-01-0---0-0--
---0--111011001100----0-0-
----01-00-020-02--0----0-0
----010--0-2-0-----0----0-
-----00-0---0-------0----0

*** Life<FredkinCell> 26x7 ***

Generation = 0, Population = 6.
-------
---0---
-------
-------
-------
-------
-------
-----0-
-------
-------
-------
-------
----0--
-------
-0----0
-------
-------
-------
-------
-------
-0-----
-------
-------
-------
-------
-------

*** Life<FredkinCell> 33x22 ***

Generation = 0, Population = 29.
------0------0-0------
--------------0-------
----------------------
-------------0----0---
----------------------
----------------------
------------0---------
-0-----0------0-------
-0--------------0-----
------0---------------
-----0----0-----------
--0-----0-----0-------
------------------0---
----------------------
----------------------
----------------------
----------------------
-------------------0--
-0----------0---------
----------------------
--------0-------------
----------------------
----------------0--0-0
----------------------
----------------------
----------------------
-------0--------------
----------------------
---------------------0
----------------------
---------0------------
----------------------
----------------------

Generation = 7, Population = 351.
-0----11-2-1-----0----
-10---0-------1---0---
0-10-01--2-0-4-2---1--
-1-1---10-2---2-1---0-
---11--0-01--022-1----
-11-112201-112101---0-
0202---2--30-2-23--0-0
23231122--1-2-32-00---
-501-52-2-00-010001--0
--3-022300-20-0--0-0--
0-01222-412-301--02010
--2-11-2-13030-00-12-0
-1010---0---2020-02-00
111-----0----0--01200-
01--0--100---0--101---
---0-000102--00210-101
0-0-00--30001-0-1-02-2
-0-00----00-0120-10-03
--00--2-------000--20-
--0-00------0--10--30-
-0-002--1--0-01--10--0
--000-00-00-000-02---2
--01-101210011--0---13
-0--00000-0000--00-2--
0---0012-2-10-01-1---1
---0-00-0-0--00000000-
0-0-0--1-1---110-0-00-
-0-0----0-----00000--0
--0------------1-10---
---------0---0--0--0-0
--0-----0-0-0-0-------
---0---0-0---0-0-0---0
----0-0-0-----0---0-0-

Generation = 14, Population = 323.
-5-13---34-----1------
11--010--02---400-00--
-21-15-0-511-----1----
----1-2----2-1----3210
3-11-24--0-1-5----01--
0-2--2-----1-3-2-0--1-
---206-3---2-3-53---20
--24---2-3---5---0--00
0-0--9-1-0---3220220--
1-8-03-3-2-3---3--1-1-
2-2----0-5-461222352--
--3-620531-1-2--2-4--0
1------0--5-2331416-4-
3--00-0200311---3--301
--3--0-32---1-136-2-00
043--45-11--3-4-3012-1
---102----4--12-6-14-4
0-002--0-12----20303-3
-1-1-------121-101-3-5
1-1051-2-0-0-011-1-412
-05-4----0-0--6--3-2-3
002---11-00-00-0-201-3
110-1--3-----------724
1---0-----110--001-4-0
111---13-6-2--1---1---
--0-----1----01--0-1-2
0--010-13--012--1--1-0
---------------1---2-0
--01-313-21--412-2-4-0
-----------------1---0
-0--1---11-01---1-0---
-------------------1--
------0-2-00--03240-10

*** Life<FredkinCell> 4x21 ***

Generation = 0, Population = 18.
0-0-0--------------0-
----0---00-0--0--0---
00------0-----0----0-
--0-0--0-------------

Generation = 6, Population = 37.
1220-1----1--1--1210-
--------0-40---5---10
21-14-112----0-0----1
10-20--11-0-----1-01-

Generation = 12, Population = 35.
-4--3-30-1----4---1-1
----6-122---626-331--
--2----2--33613---05-
-2---3---20---31--1-3

Generation = 18, Population = 41.
36-55---219-42--2--43
-47-9-4-6673+------32
6------6-4359--------
24-36-7554-4-14---7--

Generation = 24, Population = 41.
5--6-6---3--665--5-4-
-69-+3----8--4+8-5-44
874---597-55--7435-7-
--2--5----26--86-69--

Generation = 30, Population = 45.
7-57-964--+--9-53----
7---+3--97+5-6-+-746-
+-8-87-+-8----+--74--
6766+7+9773-47--3----

Generation = 36, Population = 44.
88-88+---7---+86---+-
-9+-+-6-+8+--+-+--6++
+++5+8++---++-+--95--
77-++--+--5958-------

Generation = 42, Population = 43.
--8--+--4-+5--8----+4
-+--+58-+++-++--9---+
+-+-+8-+9+---6+-++-+9
7-+++----+9--+---++74

*** Life<FredkinCell> 13x38 ***

Generation = 0, Population = 32.
--------------------------0-----------
00-----------0--0---------------0-----
----------0---------------------------
---------------------0---------------0
-----------------------------0--------
----0--------------0----0---------0---
--------------------------------------
---------------0--------0--00---------
----------0---------------------------
---------0----------------------------
------00--0--------00--------0------0-
---0----------------------0--0--0-0---
--------------------------------------

Generation = 18, Population = 214.
-----232112------246824---31-5-12-----
4-8--0-1----4--55--8-2-37---70-14----1
--3---0-1-1-31----------2---0--0--5---
3---41-10-2---3---0-1325--35---4-----6
-----2---2-14--1-10--21---63---0-40---
-354---1--6-----213-42-24---43-32----3
----1-650---20-----66-----42-5------2-
11-3-00-1-3--22-61358-75--5----416-346
--14--34--2-31------6-22----2--3---13-
7-----331-13133-26-2-1114-----0--3----
-2--2-8--463---4--+-23--1312-3-6--2--3
13--22--12-61-24-24-40-2-88-+54--28252
---1---3--5-51------8-22--4-1+-4---04-

Generation = 36, Population = 212.
34----7-4-7----8----9-7--4-------15---
-5+-569----3-586+-6+79-7---3---6---674
----7-03--4-----7-457-9-3-----------4-
-365-53--6---7-516---8-8+-9+8--7--6--7
-6--766---+6--4---279-3-------2---6---
5---8--+-5+----7----8-4-7------653-6--
-4353---9-------5-------2-+-----47--+6
-8-68898-6-5-+-3865++8+89+77+8--788-6-
-5----86--7----73--8+---86+--+6--7--3-
-6+---7-4696-+-46+-----4--7-6-22+---34
67--+8++8--+5-88+----8--4--7-72--4-9--
6-78-565--4-5--8-67--4---+--+8-698-9+-
-4565---6-------3-------7----+--95--52

*** Life<FredkinCell> 11x23 ***

Generation = 0, Population = 13.
-----------------------
-0---------------------
------------------00---
--------------------0--
---0-------------------
-0---------------------
--0---------00-0-------
-----------------------
----0-------0---------0
-----------------------
-----------------------

Generation = 13, Population = 122.
-----1--12-110--0---1--
--0--1-1-201-2-000-0202
-2-214-3----223-42-31-2
-----00--01-1-3------01
---2-0--1----400-2-4-0-
-2-30----10-2---20--302
1---4--146224--42----22
-1-0--0-0--0200-00304--
-----3-1323-26-44-1----
--0-010--10--0---000200
-0--130-----2401-2--0-0

*** Life<FredkinCell> 24x20 ***

Generation = 0, Population = 39.
---------------0---0
--0----------------0
0-------------------
--0---0------0------
0-------------------
---------------0----
--------------0----0
-------0----------0-
--------------0-----
-0-0-------------0--
----00----0---------
0-------------------
-----0--------------
--0------0----------
--------------------
----0---------------
--------0-------0---
---------0----------
0---------00--------
---0----------------
------------------0-
---------------0----
---0----------------
0-0--------0--------

Generation = 1, Population = 107.
--0-----------0-0-01
00-0-----------0--01
-0----0------0-----0
-0-0-0-0----0-0-----
-00---0------0-0----
0---------------0--0
-------0-----0------
------0-0--------0--
-0-0---0-----0-0-00-
0----0----0---0-0-0-
00--110--0-0-----0--
-0--0-----0---------
0-0-0-0--0----------
-0-0-0--0-0---------
--0-0----0----------
---0-0--0-------0---
----0--0-------0-0--
0----------0----0---
-0-0------110-------
0-0-0-----00------0-
---0-----------0-0-0
---0----------0-0-0-
0---0------0---0----
----------0-0-------

Generation = 2, Population = 118.
0------------0-0----
1-0-0-0------0---0-2
--0------------0---1
0-0-----0--0-------0
--1-----------0----0
--0---00---------00-
0-----------0-0-00-0
-0-0-0---0-----001--
----00----0-0-0-0--0
10-0-1-0-------0--10
--00-2100---0-0-----
01-0-----0-------0--
---010-0--0---------
-------0---0--------
-----0--0-------0---
------0-------------
0-----0----0--0---0-
---00--0---1--------
0-0------0--10--0-0-
-0---0---0-----0----
0--1------00----0---
0-01-------0-0---0--
-0---0------------0-
0---0----0-0-0-0----

Generation = 3, Population = 207.
100-0-0-----01--00-1
2-1----0----010-0--3
-0-00-0-0--0-00-000-
---0---0-00-0-00--0-
00-0--000--0-0-0-0-1
0010-0110---0-----10
--00-000-0-0---0-10-
----010-0-----01--0-
0--01100--------1--1
21010-01--0---0--02-
-011---11--0-----000
120---0-----0-0-0-0-
000--1-10--------0--
---00-01----0---0---
----0----0-0---0-0--
0-----100--0--0-0-0-
-0-0001---0100-0-0-0
---110--0002-00-0---
-0--00-0011-210----0
0--00-0-01-0000-0-0-
1--200----1-00------
101-00-----1--0-----
0--0--0--0-----0---0
---0----0-------0-0-

Generation = 4, Population = 124.
-----------0---0-1-2
3-2---0----------0-4
--0-1---------10----
0-0---01-11------01-
--1-0---------01---2
-121-------0-----0--
0---01---------1-21-
0-00--1----0-01---1-
1----2----0-------0-
-21--1-2-0---0-0---0
01----1-20---------1
--1----0----------1-
-1------10----0-0---
00-1-01--0---0---0--
0---10-----1--------
---0----1-----------
----11------------0-
--0--1---1---1-0----
--001-01------10----
1-0-1--0---1--------
--------0-----0-0-0-
2-2------0---------0
1--1---0--00--------
0-010-00------------

Generation = 5, Population = 206.
1-0---0---0-0-0--2-3
--3000-0---0--0-01-5
-0---0-0-00--0210-01
---0-012-220----012-
0--0-000-000-0120---
-23200----0-0-0-01-0
1--012-------0-----0
--11-1-0-----12----0
2--013-0------00-01-
2-21020-01--0---0--1
1-1-----3-0--0-0---2
12-0----0-----0-00--
-2-0-10-2-0-------0-
----0-21-1000-----0-
1--02---000-00---0--
0-0-0--0-0-0------0-
--0-2-1-00---0-0-0-0
-01-12-00-0-0-010-0-
001--01-01-1--2-0---
--1020-1--0-0--00-0-
----0------0-0------
3------0---1--0-0---
-002---10-110------0
1-121-1-0-00--------

Generation = 6, Population = 222.
--1-0----0-0--10-3-4
3-----01000----0--0-
0-----0----0013-1---
0001-123-3--0--01---
----011-----012-1002
03--11-1--10--10-2-1
--012300--0--10-021-
-022---10---0----1-1
30012401-0--0--11121
---21312-2-0--00---2
-1211211-0-0--0-0003
--110000-0-----011-0
-3-112-1301-0-0-0-10
00-110-2----------10
20-130001----10-0-0-
1-10-0----0----0-0--
0----1-----1--010---
--2----11--2-1-2-0--
112-112--2--213--0--
1---3-0--------1---0
1-0-1------10--0--0-
--210-01---------0-0
111---------100-0-0-
-0-32--01----------0

Generation = 7, Population = 260.
10---000-10-012---0-
403-00---1100101----
--00---00--11-4-200-
---20--4--2--0012-20
--1----0-00------1--
14--22-200-1-021---2
10-234-1-01--2-11-20
---30-121-001-210--2
411-3512010-10---2-2
2-23---3---1-0--0-2-
123----2---1001--1-4
-2----110--00-01----
-402-302-12----010-1
-1-2-12-010-00---02-
3-024--1200-0210-01-
-02-0--010---001----
10-022100--20-1-10--
--311--22-0302-3010-
----------1-32400100
---0-011-1-1-0-200--
2-12-0-0--1210010--0
--3---120--1-000----
22-2--0-0--12-1--0-0
-114301120--000-0---

Generation = 8, Population = 121.
-------1---0-2---3-4
-1-01-----21-2-2-1--
0---100-1-0---------
--0-112---3--11----1
0----11-0-----------
-------3-1-------2-3
------0----0-3-2--31
----1-----1---32----
------2-1------11-23
--34-3---2-2---0---2
-3--------0211----0-
--11----1----0------
05-----------0----1-
-2--1-----1------1--
---3----------2----0
1------1---00-----0-
2-------1-----2-----
0-42-------4--------
--2-112-0-2-------11
1--1-------2---3----
-----1----2---1---0-
--41---3-0-------0--
3--3------1---------
---5--2-310--------0

Generation = 9, Population = 208.
-0-00-0-0--1-32004--
---1--0101---3---205
--0-21--------41-0-1
-0----34-3400221--2-
-01----0--0--12--1--
1----21-0-11-0-10-14
----34---0----031-4-
---3-1--10----43----
--113-----00---22-3-
--45------03-001--23
1-3--2--3-13--10-1--
12220--1-000--0-----
1--21---3-2-010----1
-30--1---1-0-00-0--0
300----1--0102-0-0--
20-0--1---0110---0--
-000-----0--00-1--0-
1--3-20-----0-0---00
-13-2-3----1---0-122
-0----1-0-0-0---0--0
2-1-1-00-----0-----0
305-001---0---0-0---
-2--0-010021-----0-0
1-1630--4--0------0-

Generation = 10, Population = 212.
1---1-111-0--------4
-1-21---1221040--3--
---0320-1-0111---1-2
010-1-4--45--3--21--
--20-111---0-2-2--02
--3---23-1-2-1---2-5
1---45--01-0------5-
---4-2122--0-1-40---
-1--4---1---10033-4-
225--3--0214-112---4
23-1--1--0241-2----4
2-33--1--1-------1-0
250-------3-12101-12
0-----22---1-1-0--21
-----0--2---132-0110
-1-100-----2-10-01--
2--122--1---1-2-1-1-
-04413-2-1--12-3--1-
--40-1-10---3---0233
-11--0-1---2--------
3-2-2111----------01
-1--1-230-1---------
331-----1-3-2-1---0-
-12-41--5--10-------

Generation = 11, Population = 219.
----2-2--11-032--40-
----2---2--21512040-
0-------2-1222------
1---2----5-0--2-3---
0-3102--0--1-----11-
144-22--02---2210--6
-00-5-01----0--31---
002-----3-11124--1--
-2---52---002-1-----
--6----3-32--------5
3--21-22-135213--10-
----00211200-0-1--1-
3------2---023-120-3
1-0---33-------10-32
30-3-1---0-12--0-22-
----111---0---1-1-00
-0-2-31-----2-312020
-15-24-3--04230-0---
-15-2--21---4---1-44
-22---1---0-----00--
--3--222--22-----012
325120-4--210-0----0
4--3-00---413--0-0-0
----522161-2-00---0-

Generation = 12, Population = 232.
---03--1-221-4-----4
4--230013-2---2--5-5
10-----0302-3-41-10-
-10-3---0-5-------2-
-0----11100202-2122-
-5523----312-3-2----
111-6512011-130----1
1--412-----2------1-
-31-463-1-11-023-2-3
2---1314--34-1---0--
-3-3-2-332-6-24-02--
------3--311--02-12-
450-130--1-----231-4
-3----4-01---102----
-10-42012-0233-1-330
2--12--1-----12-2-1-
210--4------304---3-
12-4--04-11----3----
126-3---22--5-40-255
1-313-21011-0--3--0-
30----3-003---1-----
--62-1-5003---------
5--4-1-11-----1---01
1---633--203011-----

Generation = 13, Population = 230.
1-1----21332-----405
5-3-4-------1-3-0606
---0-2----3----2----
-21--144-----32-31-1
0-31-22-21-3-------2
-66-----04----23-216
-2--76---2--241-----
2025-312-013---4---2
44215--2---2---4-34-
-26---2-0--5--12--25
----13---------013--
2-33004--4--0----23-
561-2-12---0-313--1-
--0--1-3---1---3--3-
--13--12-01--4-20441
3122-1-2--0212-1-1--
3212-----00241--2040
23----152-24-30401-0
23--41-2-3216-51-366
------------10040-1-
-13-2-4-1-4210----1-
--7--22--1-1------00
63-50-0--0-13-20-012
21--744--3-----0--00

Generation = 14, Population = 242.
2-203-23---3--2---1-
6-42---132-----2171-
100-33-0-0-2324-2-0-
-3-23255-550043142-2
--42---1----02-21---
----3-23-5120--4-3--
--1-8--2----3--3-25-
--3----------2-501--
---26-33-1--2----4-3
-------4-3360123-0-6
33----2-32-62-----04
32---1--1-1---0----0
--223---313124--3--4
1-------01-20-------
3-2-4223-1-2-5-3-552
-2-3--13101323-2--1-
4-2-241--1--52-1----
34-42-263-35--1512--
--6052332432--62--7-
1-3--02101-2211510--
32---25--0532--100--
328-2335-23-0000--1-
--16---11---4-3--1-3
--2----164030--10---

Generation = 15, Population = 236.
3--14-3--33-04--0-25
-15-40-2--2-15332-26
-1----0-3-3-43----1-
-4--43-6---1--42-32-
--5-022-2--31-23-2-2
----4-34-6--1-2-04--
-22-96-3021-4-1-1361
-04---1--0--1----2-2
---37-4--2--302----4
22-51-2504-7---4-12-
--3----3-------0--15
---3---1--21---21---
--3-4--2424235-3-115
23-2-14--213-1-3013-
41-35-3---1--6-4-663
3---2124---434--2-2-
5-----201202--4--04-
-5--3-37---------3--
---163---543--7313-6
224--1-212-33-2-2---
4-3--362-16430121---
-3-2344-0--11-1--0--
6-27-1-2-0---040--1-
-13---4-7----1-21--0

Generation = 16, Population = 123.
---2-0--14------1---
--62-1------2-----3-
1----3----42--4-2---
15-2----0--20-------
----13----0---3-1-2-
-6-2-----7-----4-5--
1----7----2---2-----
2-----2----3-----31-
4---------1---3----5
336----6-----1-5-2-6
3--31----23---4----6
--3---4------0032---
5--------3--------26
--03-2------0--4--42
5---------22---5---4
---------01---------
6-----3--------1---0
--5-44---------5---0
2--27--------2--2---
------2--3-4-1-----0
5-4--47-------------
3--------2-----0----
----02----41--5-----
-2-----1----021-20--

Generation = 17, Population = 222.
---3-133253-0--0-42-
617---0-322--53--7-6
2-0-340-305-43---11-
-6-----6-55-14----2-
0--2242-2---12-3-2-2
--------0-1---2-0---
2--29--------4----6-
-0-----2--1-1---042-
--2---43-2---------6
4-7-1-2-04--0-------
4-3423233346-2501317
-2--01-1--2-011-323-
-6-2-31-4-4-351-31--
-314--4--21--10501-3
-123-2-----3--260--5
------2-11----------
-22-2--0-20---422-41
-5-4-5-------316--11
-3-3--3--5-3637--3--
--413-321----22-2-1-
6--225-2---4-0-2---2
438-3-4-0--1----0---
63-71302--52--6-01--
2-3-744-7-0-1---310-

Generation = 18, Population = 215.
30---24-36--------3-
----41-24-322-4-2---
3-1-4--0--6--4--2---
1--2--5-----2542-33-
--53--313--3--3-1-2-
-----2341--213-4--16
--23+7-30---------71
---51--33------51---
4-3376--13------34--
5--523---5----25022-
53---4344457--6-2428
-3-3-2-21--1--234---
5-334--2-3----2342-6
24251253-3-----6---4
5-3---3-2---3--7--66
---32--42--4------2-
6-32----1-12---33---
3-554--7--35--------
246---4----4--8---76
2-5--1-32----3-5-0--
7-4--6-31-65-11-1---
549---5--2--101-1--0
7--8-4-310---0--1---
32-6-5-1--13-212-210

Generation = 19, Population = 258.
412---53-7-30-2-14-5
-172--0--2--35--373-
4--05--1-07-454-3-1-
2613-3660-5-3653-4-2
006-2-42-104124--2--
------4-271--42--52-
-234+-1412-044--13--
2-46232-4-----46--22
5-4---4---1---344---
----34-60--7-1------
--3--5-555--22--3539
34340343-4-20134523-
6----3--4442-5--53-7
3--62-6-041-0----1--
6143--4-3----62806--
--2-31-531-5----213-
7--32--02--35-44404-
-56655---1-62-161-11
3-7-7--32--56-----87
-2-1323--31-34--2--0
-2-2277--17632-22--2
6----4-503--2----01-
-3-9-50----2--6-2-1-
-3-7-6-2--24---333-1

Generation = 20, Population = 239.
52---2-4-8-4-4----3-
6-8--1124---4-4348--
51116-023---5--24-2-
372--47-1--24--4453-
-1-3-45-----2-5-1--2
1--2-2-----215-4-636
-345-72---21--2-2-71
30573-335-131---1-33
6-5--65--3-----55446
5--54-2-----02-5-226
5-4-2-366-57-3---64+
--4-------2-1------0
--3-441---5--6---42-
----327-15-3-1060-44
--5-5-53-123-7--17--
--3--22--2-6-4-23--0
--3-343--214---5-15-
3677-63-3--73--7-32-
--8--3-435--7-83-3-8
-35--3------4-2-30--
-3--3----28----3---3
-4-----6---13-1011--
-4-+-61310-3-0-03-2-
34-8-74-743-1--4441-

Generation = 21, Population = 252.
-3--43553---0--01--5
--9---2-----5554593-
62--7-1340---5-35-32
---3--86255356------
0264-5-23--4-2--2223
-6----4-----26---747
2-56+---12-24--33382
-1-84-4-60-4224--444
-463776----2-03-65-7
-376-4--053-1--603-7
6-543---7--8-4603-5+
34-4-3-314-2-1----31
-64--5-24-6--7-3-5-7
---643832--4-2-----5
-16-6-6432-4---828--
-2-33-3-3----5---1--
7--34-40---5-24-4---
4--857-741---3---4--
34--7-45464-----2-8-
2--1-4332-145-3-4-1-
7--2---3139---142-1-
6-9234-7----402-22-0
---+--242-54--614-33
4--9---2-544--1-5--1

Generation = 22, Population = 234.
5--35-6-48-41-------
61-2---2-2-2-6-----6
73----245--25-4--1-3
---4-----6-4-754-5--
13---------5--53333-
176-4----7-2--2408-8
--67-7-4----54-4---3
-2-9535----533--1555
657-88-3---3---5-64-
---7-5-6--4--22---2-
7---45---5-92--1-6-+
---504---523----5--2
--53--1354-23-----2-
--27549-3--5-30-0-46
6-7--275-3-53-29--66
-33-4---4---36-2323-
8-3454--221--35--1--
--7--8-85--734--1---
45838----7--73833398
--52354-3-2-6-45---0
-3-----42-----2-302-
7-+--55-03--5-3-33-1
------3-30----7-5144
-43+7--3765-122464-2

Generation = 23, Population = 246.
6-2-6--55---2------5
7--3--23-3-------937
--1--43560736-5-52-4
--2-4-86----58--4--2
---42-----0-2-6-4-4-
-8-2---42--3----1-49
23---82-12-2--253---
-3--6-63--1-4-46266-
768--9641--4----6-5-
-3-----70--7-336-33-
-3-4-63676--3---3-5+
3---1--3-6-41------3
-6-445--6-634-2--537
3438-5+-451--4-6--5-
-1--6-86--------2-7-
3443523-521------3--
-24-6-4-3-2-546-42--
---859-9-1-8451-2421
5--4-3454---84944---
23-34-5343--745-4-11
--423-753-9--2-4-133
-4-236-71-31----44-2
74-+1-4441-----16--5
45--87-4876-2-3-7-13

Generation = 24, Population = 221.
7--3-3--6--4-4---4-6
819----4-4-2--5----8
732--5---1---5----3-
-73454---6--6954---3
-3---55-31-532----53
-9-3-2-5---4-------+
3467-9---323-4-64--3
3--9--7-6------7---5
8-93-+7--3-5-0-57--7
---7--281-4814-7-44-
-4--47--8-594-6--6--
-4-524-4-72-213-523-
675-5---7--4-7--564-
4------3------0-----
6-737-973----7---886
4-5---45---6362-34--
------504-35-5---3-1
46--6--+--39--2735-2
6-8---5--7--9---5---
-454-56--4-4----50--
735-47--43+--32---44
-5+3-7-823-250-0--1-
-5--2-5---544--27---
--3--84-987----48-2-

Generation = 25, Population = 222.
8-----6---35----1--7
92----2-45-356-4-9-9
--3--6356-73-653-2-4
-84--5----5----54-34
1----6624---4--3-364
--64--4--------41---
-5-8-+-4-4------538-
--5-638--01---4-2-6-
9-+4-+8-1-1631-68--8
53-8-5---5--2-380-5-
7554---6966+5-7---5-
--46-----8---2-----3
-8646--3----4823-7-7
---8---44--5-4-60--6
----8---43-5-82----7
5-6-52565-----3-45--
-24-64--5--656654--2
-7-8-93+------3-4--3
7-9-8-6-48-5-49--3-8
2--54--3--2--455-1-1
8-6-58----+6--3-3--5
-6+4-8593---6-31-42-
762---6--1-5--73-1--
---+-9--+---2-3----3

Generation = 26, Population = 237.
9----3756-4--4----38
-3-----4-6-4--555+--
73417-4--1--6--4533-
-9-45-8--66-69-65--5
---42-7-5105-26--47-
1-7-425527--2-2--8-+
3--9++---5----2-6--3
3-6-7-------4--7-67-
+6--8+------42--965-
6----6-81648-4-9--6-
-6654737-----48-366-
3457-----9-42334-2-4
697-7514-4--5---5---
-4-95-+---160---1-5-
6-7-9-9754-6-----888
-47-63--6---36-2-63-
---4-5506237----5-53
-8----4+51--45-75-2-
85--937-594---+--4--
-4565-----347--652--
937-----43-7-----1-6
7--53-6-4-32--4-4-3-
87-+-67-4---408--2-5
45-----4------4--42-

Generation = 27, Population = 253.
----64-678--2--01-49
94-34125473---666-39
8--2--5-6---7--5-44-
-+456--6-7-4--5--53-
13--36-2--16------84
2---536-38---6-4-94+
-56+---4-62--436-3-4
-3-9-3---0-55-------
+7-4--84131---36+768
73784-2----92-3-04-7
7-76-8----6--5--47--
----2---1+-53445-33-
------25-5-4--2-6-47
45-+65-44527-4-6216-
--83-2--652738-9---9
-5-3--56-21647--4-40
----6-61-3-85--56364
-978695+-23-5638-53-
96-----5-+-----455--
256---6--4-584-7-311
-4-2--75-4----34324-
-6--487--34---5----2
9--+27-4515-5-93-3--
--3+-9------2-548-3-

Generation = 28, Population = 250.
93----7-8--5-4------
-5--5236-844-67--+4-
93--7-6-717--6565-5-
3--6---72-65-9--5-4-
----4-73-12-4263-49-
397--47-4-142725--5+
--------173------485
--6--------66---2-7-
-8+------426-2--+8--
848-563-164+34491568
86------9--+568--8-+
3-5---4-2-2--556----
69-4--3---6--83-7-58
563---+-5-38050-3--6
619493-7----49-+288+
5-74----632---3256-1
--447572----66--74--
----7-6+-349---9-6--
-7949376---5---5-698
--7--5734--6-55--422
--7---86---73--5-3-6
-7+5-9-9-4-260-14---
----3875-2--6-+-7--5
454-8+44+8743--594-3

Generation = 29, Population = 245.
+-2-6-86---6-5---44-
9-93---7--5--7---+-9
--4-867--283776--4-4
4-4-6-8---766-5665-5
-36--6---23---7-45+-
4-84-5-55-2-383-196-
35---+24---3-436-5--
--79----6-1-7--73-8-
--+48+8---37-3--+-68
----6-4--75-4-5-2---
9-7-48-7--6-6-91-96+
-----45-3-3--6-7-33-
7---75-5-5---9438-6-
6--+6-+4----1--6--6-
72-5-49-65-------9-+
65856-567-36-743-742
82-58-8-----77-5-564
-9-8--7+-4---63+5--3
98+-+4-7-+--94-6-7+-
--------543-86675533
-----8-7-4+8-3-63447
78+64+---5---15-----
9-----865--5-0----46
5-5--+55-9---2-6+5-4

Generation = 30, Population = 230.
+-33--9-8----62-1-5-
+-+452384-64----6-4+
-3-2----73-488------
-+--7-97-787-96-7646
147--7-3-34----35---
5--5--7-68344945---+
-66-+---1-3---4--68-
3---------2--3---69-
-8-59--41-48-------9
8-----5-186+54693---
------------76--4-7+
--5-256--+45-7--5-4-
89-----67-------97-8
--3--------8---7--7-
8-9--5+--6-7492-2+-+
7----36--3474----853
-346---2633-88--7-75
4-797----54-57--6634
+9+4+5785--5-5-----8
257-5--36--6----6---
9472-9--45+93---455-
---------6--626-44--
---+38-7625----37-5-
6--+8+6-+-7433-7-635

Generation = 31, Population = 255.
+-----+69846273-2-6-
+5----4-587---767--+
-44386-5---5-----4--
-----5+-289-6-76---7
-58----454564-7---+-
698----5-9----5--9--
377+-+2427--545-6---
-379---3-0--7---3---
+--6++-5-45---36+8--
---866-8--7+65---56-
9-7-48--9--+-7-----+
3---3-7--+-63857-354
9+7-75-78-6--9---8--
--4+-5+45539-5--31-6
9-+59--767285-3+3--+
8--56----458574-5-64
845--5-3--489-658-86
5-8---7-5--9-83+--45
++-5---9---696+--7-9
3-8-65--7----6-77-33
-5835-8--6-+--365667
78+-4--94-4---715-3-
9-2-4-8873--------6-
-55-9+75+9---4-8+746

*** Life<FredkinCell> 39x40 ***

Generation = 0, Population = 4.
----------------------------------------
----------------------------------------
---------------------------------------0
----------------------------------------
------0---------------------------------
----------------------------------------
----------------------------------------
----------------------------------------
----------------------------0-----------
----------------------------------------
----------------------------------------
----------------------------------------
----------------------------------------
----------------------------------------
----------------------------------------
----------------------------------------
----------------------------------------
----------------------------------------
----------------------------------------
----------------------------------------
----------------------------------------
----------------------------------------
----------------------------------------
----------------------------------------
----------------------------------------
----------------------------------------
----------------------------------------
----------------------------------------
-----------0----------------------------
----------------------------------------
----------------------------------------
----------------------------------------
----------------------------------------
----------------------------------------
----------------------------------------
----------------------------------------
----------------------------------------
----------------------------------------
----------------------------------------

Generation = 3, Population = 54.
--------------------------------------0-
------0------------------------------0--
-----0-0----------------------------0---
----0-0-0----------------------------0--
---0-0-0-0----------------------------0-
----0-0-0-------------------0----------0
-----0-0-------------------0-0----------
------0-------------------0-0-0---------
-------------------------0-0-0-0--------
--------------------------0-0-0---------
---------------------------0-0----------
----------------------------0-----------
----------------------------------------
----------------------------------------
----------------------------------------
----------------------------------------
----------------------------------------
----------------------------------------
----------------------------------------
----------------------------------------
----------------------------------------
----------------------------------------
----------------------------------------
----------------------------------------
----------------------------------------
-----------0----------------------------
----------0-0---------------------------
---------0-0-0--------------------------
--------0-0-0-0-------------------------
---------0-0-0--------------------------
----------0-0---------------------------
-----------0----------------------------
----------------------------------------
----------------------------------------
----------------------------------------
----------------------------------------
----------------------------------------
----------------------------------------
----------------------------------------

Generation = 6, Population = 58.
----0-0-0--------------------------0----
----------------------------------------
--0---0---0-----------------0----0-0-0--
----------------------------------------
0---0---0---0-------------0---0----0-0-0
----------------------------------------
--0---0---0-------------0---0---0----0-0
----------------------------------------
----0---0-------------0---0---0---0----0
----------------------------------------
------0-----------------0---0---0-------
----------------------------------------
--------------------------0---0---------
----------------------------------------
----------------------------0-----------
----------------------------------------
----------------------------------------
----------------------------------------
----------------------------------------
----------------------------------------
----------------------------------------
----------------------------------------
-----------0----------------------------
----------------------------------------
---------0---0--------------------------
----------------------------------------
-------0---0---0------------------------
----------------------------------------
-----0---0---0---0----------------------
----------------------------------------
-------0---0---0------------------------
----------------------------------------
---------0---0--------------------------
----------------------------------------
-----------0----------------------------
----------------------------------------
----------------------------------------
----------------------------------------
----------------------------------------

Generation = 9, Population = 58.
---------------------------0-0----------
------0---------------------0--0-0------
-----0-0----------------------0---0-----
0-----0-------0----------------0-0-----0
-0-----------0-0----------------------0-
0-------------0------------------------0
----------------------------------------
--------------------0---------------0---
-------------------0-0-------------0-0--
--------------------0---------------0--0
--------------------------------------0-
------0--------------------------------0
-----0-0--------------------------------
------0---------------------------------
----------------------------------------
----------------------------0-----------
---------------------------0-0----------
----------------------------0-----------
----------------------------------------
-----------0----------------------------
----------0-0---------------------------
-----------0----------------------------
----------------------------------------
----------------------------------------
----------------------------------------
----------------------------------------
----------------------------------------
---0---------------0--------------------
--0-0-------------0-0-------------------
---0---------------0--------------------
----------------------------------------
----------------------------------------
----------------------------------------
----------------------------------------
----------------------------------------
-----------0----------------------------
----------0-0---------------------------
-----------0----------------------------
----------------------------------------

Generation = 12, Population = 62.
0-----0-------0---------0------200-----0
----------------------------------------
--0-------0----------------122-----0-0--
----------------------------------------
--0-0-----0-------0-0-------0------010--
----------------------------------------
------0------------------------0-0-----0
----------------------------------------
0-----0-------0-0-------0-------0------2
----------------------------------------
-----------------------------------1-2--
----------------------------------------
--0-------0---------0-------0-------0---
----------------------------------------
---------------------------------------0
----------------------------------------
------0----0------------0-------0-------
----------------------------------------
----------------------------------------
----------------------------------------
-------0-------0------------0-----------
----------------------------------------
----------------------------------------
----------------------------------------
---0-------0-------0--------------------
----------------------------------------
----------------------------------------
----------------------------------------
-------0-------0-------0----------------
----------------------------------------
----------------------------------------
----------------------------------------
---0-------0-------0--------------------
----------------------------------------
----------------------------------------
----------------------------------------
-------0-------0------------------------
----------------------------------------
-----------0----------------------------

Generation = 15, Population = 504.
---0-------------0---0----1-1------0----
--0-0-----------0-0-0-0--0---0----0-0---
-0-0-0---------0-0---0-01-----2--0-0-0--
0-0-0-0-------0-0-----0-00-----00-0-0-0-
-0-0-0-0-----0-0-------0-01----100-1-1-0
--0-0-0-----0-0-------0-0-00--0-000-0-0-
---0-0-----0-0-------0-0-0-011-1-100-0--
----0-----0-0-------0-0-0-0-000-0-000---
---------0-0-------0-0-0-0-0-012-2-10---
----0---0-0-0-----0-0-0-0-0-0-000-0-00--
---0-0-0-0-0-0---0-0-0-0-0-0-0-011-2-30-
--0-0-0-0-0-0-0-0-0-0-0-0-0-0-0-000-0-00
-0-0-0-0-0-0-0---0-0-0-0-0-0-0-0-012-2-1
0-0-0-0-0-000-----0-0-0-0-0-0-0-0-000-0-
-0-0-0-0-0110------0-0-0-0-0-0-0-0-011--
--0-0-0-0000-0------0-0-0-0-0-0-0-0-00--
---0-0-0110-0-0------0-0-0-0-0-0-0-0--0-
----0-0000-0-0-0------0-0-0-0-0-0-0----0
-----0110-0-0-0-0------0-0-0-0-0-0------
-----000-0-0-0-0-0------0-0-0-0-0-------
----0-0-0-0-0-0-0-0------0-0-0-0--------
---0-0-0-0-0-0-0-0-0------0-0-0---------
--0-0-0-0-0-0-0-0-0-0------0-0----------
-0-0-0-0-0-0-0-0-0-0-0------0-----------
0-0-0-0-0-0-0-0-0-0-0-0-----------------
-0-0-0-0-0-0-0-0-0-0-0-0----------------
--0-0-0-0-0-0-0-0-0-0-0-0---------------
---0-0-0-0-0-0-0-0-0-0-0-0--------------
----0-0-0-0-0-0-0-0-0-0-0-0-------------
---0-0-0-0-0-0-0-0-0-0-0-0--------------
--0-0-0-0-0-0-0-0-0-0-0-0---------------
-0-0-0-0-0-0-0-0-0-0-0-0----------------
0-0-0-0-0-0-0-0-0-0-0-0-----------------
-0-0-0-0-0-0-0-0-0-0-0------------------
--0-0-0-0-0-0-0-0-0-0-------------------
---0-0-0-0---0-0-0-0--------------------
----0-0-0-----0-0-0---------------------
-----0-0-------0-0----------------------
------0---------0-----------------------

Generation = 18, Population = 64.
-----------------------0-0--------------
----------------------------------------
--------0------------011-0-3------------
----------------------------------------
------0---0---------0--100--0-----------
----------------------------------------
--------0---0---------0---0---0-----0---
----------------------------------------
------0---0---0-------------0-----0---1-
----------------------------------------
----0---0--00-----------------------1--0
----------------------------------------
------0--0---0-----------------------2-2
----------------------------------------
-----------1---------------------------0
----------------------------------------
---------------------------------------0
----------------------------------------
------1------------------------------0-0
----------------------------------------
----0---0------------------------------0
----------------------------------------
------0---------------------0-----------
----------------------------------------
--------------------------0---0---------
----------------------------------------
---0-----------------------00-----------
----------------------------------------
-0---0-------------------0---0----------
----------------------------------------
---0-----------------------0------------
----------------------------------------
-----------0----------------------------
----------------------------------------
---------0---0--------------------------
----------------------------------------
-----------0----------------------------
----------------------------------------
----------------------------------------

Generation = 21, Population = 205.
-------0-0-----------021--1-------------
--------0----------0-000-0-000----------
------------------0---1---14-52---------
----0-------------00-0----0000------0---
---0-0-----------0-0-----1-1-------1-1--
----0-0-----------0----0000-----0---0---
-----0-0--------------02-20----1-1------
------0----0----0-----0000-------------0
----------0-0--0-0---0-0-------2-2----1-
--0-------00----0-----0-----0---0------0
-0-0-----0-1---------------0-0----------
--0----0--0-0--0------------0------000--
------0-0--1-00-0-----------------13-30-
------00----0--0-------------------000-0
-----0-0------------------------------0-
-----------0----------------------------
-----0-0--0-0-------------------------0-
------0----0-----------------------0-0-0
----------------------------------0---0-
--0-------0-----------------0------0-0--
-0-0-----0-0---------------0-0----------
--0-------0-----------------0----------0
--------------------------------------0-
---0--0-----------------0--0----0------0
--0-00-0---------------0-00-0--0-0------
---0--0-----------------0--0----0-------
----------------------------------------
-------0---------------0----0--0--------
------0-0-------------0-0--0-00-0-------
-------0---0-----------0----0--0--------
----------0-0---------------------------
---0-------0---------------0------------
--0-0---------------------0-0-----------
---0---0-------0-----------0------------
------0-0-----0-0-----------------------
-------0-------0------------------------
----------------------------------------
-----------0----------------------------
----------0-0---------------------------

Generation = 24, Population = 64.
------------0---------------3-------0---
----------------------------------------
------0-0------0-2----4--------2-0------
----------------------------------------
0----------0--0-0------2-2----1--------1
----------------------------------------
--------------------1---------------0---
----------------------------------------
----0---------------0-------0-------2---
----------------------------------------
0-------------1--------1-1-------------0
----------------------------------------
---1--3-1----------0--0--------0-2------
----------------------------------------
----------------------------0-----------
----------------------------------------
------------1---------------0-------1---
----------------------------------------
------1------------------------0-0------
----------------------------------------
0--1-------1--0------------1-----------0
----------------------------------------
----------------------------------------
----------------------------------------
--------------------0---------------0---
----------------------------------------
-----------0---------------------------0
----------------------------------------
---0--1----0-------0---------------0----
----------------------------------------
----------------------------------------
----------------------------------------
----------------------------1-----------
----------------------------------------
---0---------------0--------------------
----------------------------------------
---0-------0---------------0------------
----------------------------------------
----------------------------------------

*** Life<FredkinCell> 10x40 ***

Generation = 0, Population = 18.
---0-------------------------0-------0--
----------------------------0---0-------
---------0----------0-------------------
----------------------------------------
---0------------------0-----------------
------------------------0------------0--
-------0---------0------0---------------
-0-----------0---0----------------------
---------------0------------------------
----------------------------------------

Generation = 6, Population = 112.
-0---0-0---0-0--000----110-0-0----------
-0-----------1---1----------------01--11
-1-0---0---0--11---00-0--000-0-0---0-4--
---0-------0-------00-----------00--01-0
-2---0-0---0-1------10--0--1-0-0---0-1-1
-----0---1--------1--01-------01--10-1-0
-1---1---2-1-3-0--0---10-----10------0--
-0-----------3---1--1--02-------00---0-0
-0-1-1-----1-2------1---2---0-----------
---1-0---0-1-------1-01-1-0--------0-0-0

Generation = 12, Population = 116.
-1-0-----0-2320----0-01-------00--------
-1-----------2---3--1---1---10--00-140-2
-5---0-002-2-2----1-----020--------1----
---------------------0--11-----------4--
---2-1----1--2--1210-101--1-------02----
-2---1---2--10---4---0--23--2--1-1--01-2
-5---2-0---------1-1--2--0--17------0--2
-----------------4--32---2---0--42-----0
-------0-0----12--114-21-112-30------4-2
-0-----------2--11---3---0---0--2--013--

Generation = 18, Population = 117.
-4-110-1-0-----3---1---6--31-1---1-201--
---2------01------22--------2-0-1-----5-
--03---1---2------1--2-04----2----15-9--
-3------0---01--14---2----21----1-0-2---
---2---1-----4---3--23-3-2-2-3-1-1-4-4-3
-4----1---1--------1---1-3-------2------
-8-----2--11-8-----112--20-2-+-3-----232
---2----1------------3--5-1-------30-5--
-4-2-2--02-2------43---4--1----------7--
-1--------------------2-5-1-11--20-1-4-0

Generation = 24, Population = 130.
-5-2-3--2----52-17--23-651----5203-4----
----0---------------3---52-23-------92--
--14--32---3-4-----0---6-----2---4--490-
--------------------5-------6---3---24--
0---05-2------42-4-8-4--45-6-613--4814--
0-----------3----5-2--------4----6-00---
1+-4-4-205---8-361-1--2-31-4---6-3-----6
-----5--24----------6---93-2--------26-1
-5----23-5--34-42----54654-439--2--4-835
-4----------12---2----------35--4--24---

Generation = 30, Population = 197.
055-----------535--7--8-71+5---215-4-623
--2--2--12-----1375-6-3-64-47-20-4-3-4--
0--+24-----525----3-68-76--63-4-143-5+42
-4032-1---11--00---37--255-38-133----6-3
--47-91--4-6-+-3-64-5-28-737-9--46-+----
0--3--1-2----2-2----4-45-5----746-3--2--
-+-42--4-6-318--7--34-----5--+--2---5-98
2--4--1-2--2-51--734-72------5-5+8734---
-9-4-464--14-4----7--+7--45-7+3-31-83+3-
-+0313---12534-1----353-83-44---742-5-4-

Generation = 36, Population = 136.
---5-4-53435---5---9-6+---+76------6----
----3----3-33--------2--8------------4--
-7---5---9-6--67-7---+5+-5-85--11----+-4
-6---6---3----------+3-------3-44--2---7
-8--2+-+-5--4+----5+-639--591+1--9-+-5-5
1------0-43--5-315--4-------7---79-----+
--2--6---8---+-58-7355----6----------4-+
-4-------6-----------8---6-4-7-7-+-56--3
-----4--36-5-5-659-66-9--579-----5-8---8
-----43----7-4---4------+----5-9-7-678--

Generation = 42, Population = 182.
--5-3439-----6--6-5---+893---8--3--65---
-686--22344-7-3-79-5-26-+526732---2--5-4
---+3--6-+---+--5-7-9-7+-53+---43-4+-+4-
--2-36----4-58--8-26+94-97--+-2----3---8
---+-+4-----6------+7--+--6---7--+7+---6
2---244--7--4544----8-65-84+8--6-+4-0---
--3-47-----46-2---9--6+-64793-6+-7-+----
5--43--12+-2--2---45++----4-49-8++86+864
3--5---7-6--4-4-59---+--+7-+----4-------
1---2-6--2-8--3-3-1-4--1+--5------36--72

*** Life<FredkinCell> 27x6 ***

Generation = 0, Population = 4.
------
------
------
--0---
-----0
------
------
------
------
------
------
------
------
------
------
------
------
---0--
------
------
0-----
------
------
------
------
------
------

Generation = 7, Population = 45.
0-0-0-
-----0
0-0---
---0--
0-----
---0--
0-0-0-
---0-0
0---0-
-0----
--000-
--0-00
-0-0-0
--0-0-
---0--
------
---0--
--0-0-
-----0
--0---
-0-0-0
0-0-0-
-0-0--
--0---
------
--0---
-0----

Generation = 14, Population = 71.
---0--
0---0-
-0-0-0
0--0--
-0-1--
011--0
0--1-0
1-1011
2-0---
1-2014
2-0002
102--0
101032
1-11--
0110-0
1---1-
0--1-3
--10--
-----0
------
------
---0--
0-0---
-0-0-0
--0-0-
-0-0--
----0-

Generation = 21, Population = 72.
-001-2
0-02-1
1-03-1
-01-10
-324-2
-2-2--
1-02--
3--1-1
32--0-
11---4
----1-
---1--
21---2
--2-02
----02
--0---
---214
0----3
00----
1--1--
-1--41
03-00-
--1---
-010-0
--1-0-
0---00
---0--

Generation = 28, Population = 53.
1---1-
------
--3-21
------
7---37
------
-1-7--
3-----
--2-0-
---1--
-12-15
--8-1-
4----5
-----6
22--12
2---1-
-0-5--
-3-0--
35-01-
4---4-
44---3
-7----
--5-2-
----2-
-0---3
---1-3
01-0--

*** Life<FredkinCell> 4x26 ***

Generation = 0, Population = 12.
00-0-----------0----------
0-----0---0-0----0--------
--------0----------0------
-----------------------0--

Generation = 11, Population = 52.
044-2--524-30-----------0-
902-003---1-0--44--------2
-30-10--20140-2----30-010-
70-0--2-32204--3--21-10-00

Generation = 22, Population = 48.
4+-2----8-6--73----42--+3-
-1--12-3--423----8--3399-7
-514--6-42---3--55162-3-1-
+-2-----6-569-1--4--3-0---

*** Life<FredkinCell> 36x28 ***

Generation = 0, Population = 20.
----------------------------
----------------------------
----------------------------
--------0---------0---------
----------------------------
----------------------------
----------------------------
----------------------------
----------------------------
----------------------------
------0---------------------
----0-----------------------
------------0---------------
----------------------------
------------------0-0-------
-----------------------0----
----------------------------
----------------------------
--------------------------0-
--------0--0----------------
----------------------------
---0------0-----------------
----------------------------
----------------------------
----------------------------
------------------0---------
-------0--------------------
----------------------------
----------------------------
---0---------0--------------
-----------0----------------
----------------------------
-------------0--------------
----------------------------
----------------------------
----------------0-----------

Generation = 12, Population = 193.
------0-----0---------------
----------------------------
--0-------0-------0-1-------
0-0---2-2-----------2--1--0-
--------0-------0-----------
----------------------------
1-----0---------2-----0-0-1-
1-1-0---0-001---1--0------00
----0-------1-------1-------
---1------1-----------------
--4-5-------3-------2-0-----
2-----303-----1-2-----10-0--
2-------2-------1-------0---
------01------1---2---------
0------12-------0-0---------
0-220-------1---1-0--0-----0
----1-------0-------1-------
--12------21-01---2---1-----
--10--------1-1-----1-0-----
2-4-2--21---2-------0----0--
--------1----1--0-----------
0-----32-31---11-02---1---0-
------0-------0-0-5-----0-1-
0--10---0--4---------------1
---------0--1----1----------
--0--00---1--21-1-1--01---3-
---1--------------0-0-0---2-
----1--1-------1----1--0----
-----1---------------1------
-1----11-31-1-22-23-2----01-
-----------0-----------1--0-
---0-------2-3--1-------0---
-0-----------------------0--
---0-0--0-02-23-1----00-0---
---------------1---0--------
----0--0-0--1----10-0-------

*** Life<FredkinCell> 34x29 ***

Generation = 0, Population = 38.
-----------------------------
---------------000-----------
-----------------------------
--------------------0--------
---------------------------0-
-----------------------------
-----------------------------
-----------------------------
----0---0-0------------------
--------------------0--------
---------------------0-------
-----------------------------
-----------------------0-----
-------0---------------------
-----------------0-----------
-----------------------------
----0---------------------0--
------------------0----------
------------------0----------
------------------00---------
-----------------------------
-----------------------------
-----------0-------0---------
0-------------------------000
----0------------------------
---------------------0-------
-----------------------------
0---0-----------------------0
-------0---------------------
------------------0------00--
----------------0-------0----
-----------------------------
------------------0----------
---------------------------0-

Generation = 17, Population = 310.
00-0-0-0--------1---------1--
232-1-1-5---------32---724285
00--3--0---------0------0212-
---0-0-----1---1-0-20--------
----1-----1-3-0-2-10---------
----0---4-1----4-------------
0--0-0-0--110-----1-------111
-0--0-0-0--2-------10---00--4
0---00-0-0-0-------3--00--2-3
---0--1---1-----------301-42-
0---0-0--------------1----4--
-0-0-------------------------
2---1--1-------112-----0-12-1
-0----0-2-----145-6---3-1-32-
0-3----2--------3-1-----3----
-0----------------4-1---22---
--0-------------11---4--1--1-
-010----------3532--3--3903-4
-1-------------020--1----2---
-0-13-------------52-512-0442
--00-------------2-50--31-252
----------------2-7----10----
----------206----43---243---0
----2--3402-312--2-42--2-37--
4--02-4523221--1--232----12-2
-0-0-1032----------2--1----7-
0---41----0-2---3---3-3-----0
----5--1-2---2-2-0-26-3------
1-32-21420--3----0--31--3-322
1--02-22013----14--2---5----4
100---------4------10---218-2
1-1-3---1--0-----241----1----
-2---2-----4---0---2---1---0-
--1-3-----1-0-0-0-4-3---0-1--

*** Life<FredkinCell> 20x39 ***

Generation = 0, Population = 23.
0--------------0-----------------------
-0-------------------------------------
------0-----------------00--------0----
---------------------------------------
--0------------------------------------
---------------------------------------
----0---------------0------------------
---------0-----------------------------
---------------------------------------
---------0-----------------------------
--------------------------------0------
-----------0---------------------------
---------------------------------------
-------------------------------0---0---
------------0-------------------0------
---------------------------------------
-------------------------0---0-0-------
----------------------------------0----
------------------------------------0--
---------------------------------------

Generation = 7, Population = 256.
-0---0--11-1--------001-------1--------
0-0------1--0------0--0------0-0-------
-0-0-----00--1----0---13----4-3-1------
0---0---0-01----0----0-00-00-0-0----0--
-----0-0-0--01-1-10-0-0-1-001-1----0-0-
0---0-0-0-0-01--000--0-0-0-000------0-0
---0-0-0-0----1-00-0--0-0-0-00-0---0-0-
----0-0-0------1--0-0--0-0-00-----0-0--
-0---0-0---------0-0-0--0-00---0-0-0---
--0---0---------0-0-0-0---0--100--0----
---0-----------0---0-0-0011-02--0-0----
----0---------0-----0-00-0--0------00-0
---0-0-------0-----0-00-00-00---0--01--
----0-0-----0-----0-00-00--0-1-2-02--10
-----0-0---0-----0-00-0---1-1---1232-00
------0-0-0-----0-00-0---0-2----00110-1
-------0-0-----0-00-0---0-0----0-3-3312
--------0-----0-0--0-0-------1123-2-32-
---------0---0-0----0-0-0---01-001-12--
----------0---0------0---0-0--1-10-2---

Generation = 14, Population = 283.
-0-112-03333----2-1---2-5-3---1112-1-1-
-0-1---2---1---1-1-----------1-------1-
--0001-0-1---2--4-------22------1003---
-0-0---------1-0---0-------0------0----
0-0--1131101--412-0---133--13-----1--10
-----0-1---1-1---2---1---0------0---00-
----0-01-113122-13---10--0---30-301---0
-0---0-0-0-0---1---0----------0---02--1
0-------0121-100------10---3--0----3-0-
-----0-0-0---1---1----------0---112-2-3
0-0-----0--00014------1-0---2201--71-12
-0-0-0-0---0---1---------00---100-5---1
0---0-0-0-0--0---0--1--02---01031-----1
-0-0-0---0---0---------41---12021--11--
--0-0-0-0-0--000--01-10----1--1-226220-
-0-0---0-------0---2-00---0-0123--2--1-
0---0-0-0--0----11-210---1--1-0--5--42-
-----0---0---------101--2-112---31-----
--0---0------0---100------2-1------25-2
-------0-0-0---0-0----00014-0-1----5-1-

Generation = 21, Population = 328.
-------05-63---0----33535-322--124--05-
----01--02--01------010-0---02-2-03213-
---01-01----251------3--645-5--24-3-4--
----01--0----20---0------2--00-1--31-00
---0-------1-1-2-1-0---3---1-02-21---1-
0-0-0-0--1----0-0---0-----0----41033100
-0------1-1--3-1---2---------41--0102--
0-0---0-01------0---02--0-010-2300-4--3
---0-------1--------0-3---0----36---1-0
0-0-0-------0-02-----10----3-20-21-12--
-0---0-0---0-1161--0-2-1---1---2--+2-2-
0---0-0--0--00-3-----00--21-----0--2-01
--------0-1-0-0---001-123-203---2---123
--0-0-0--20100--022--1--1--5330-216--20
-0-0-0-0-20100-0-2--21--16215--2---3-0-
0---01---3-0020-00-30---0-06-1--00-4---
-0-011310-000--03-03--00-2----3--8--5--
--0--0--03-------00---3--0-24--7---3--5
-0-0---------0--310-2-----5--4222--2-1-
0-0-0-0-0-0----001-0001-0142--1-1-3---1

Generation = 28, Population = 324.
11------557-21----1---+-6863-43-26411+-
-----------2-1-2-2---31--003--2-2-4-2-3
-35-532-4----64262----4--59-9297--5-6-4
-------3-4---4------------32-----1-43--
----22---6--2-6---2-0244--2-50--2-----3
-------3---4-----410-5-1--221-18-06-3-1
01-------315-----323-23-3-3---4-4-6--01
---0-0---8-1-2---1----13-----2353--9-16
--0--1--3-----6--122--6-02---7--9-1652-
---0---0------02---4--1-1--7-4263-56-35
-----1103-4--1375-2-05216-3-7-4--2---3-
-----0-0-1---1-5-441-----4160--1-29-1--
-0---02---4--2----3--1---4--3-15-----55
---0------04---3-75-1--7-53-6--7-2+12--
1-201-1--431--315242-22-3+6161---6---11
---------6-4-422------122--7-22-2--6--3
--------2-4---3--514-5--5401-----+--5--
------01-----4012--4--7-4--5-12-4-----7
1-1-1-30--2130-343-05331-2---7--77--+2-
----------12------232--1--6-5--4--3-6--

Generation = 35, Population = 346.
-2--4-3--5--4-----217-+--+--4--6-85--+-
0-0103030-0--2---401-423----272-324-3--
-69-+3675----754738-66659--2--++93---4-
--02-303--0-0--1--11-1041---001-1-----2
-0-14-4--8-----4---02465-6-25---3-61-4-
0-0-01------0-04-----60----31-1---78--1
-2-1-0--------4-4--3-2---25--+-45---40-
--0---0---0--31--23---4---331--5--4+446
-----3-0-4-234-1--22---4-3--5-----1-8--
--0-------0-1-1-1---3---22---5-6-766---
-0---1-1----13----3--5--854--------8-4-
--0-0-0-0-1--12-18----140-26-2-3-3-51-1
-------1---0--0531---137-9-2---7--6-8--
02---3----1-----286-240-1-38---83--3-70
12--2-23---31-32-7842--1-+8-7--43+-54--
0--4-6-10--83-3-1----21-3-------2--80--
412-8-7-3-52--45--1--834--0-3---6-76-2-
1-01--021714---2----2383-6--52-95---6-7
-2----4--23-40----53856------8---+-6-3-
--1001--1-142216-3--20--------2---3-7--

*** Life<FredkinCell> 16x3 ***

Generation = 0, Population = 29.
-00
000
0--
0-0
---
00-
00-
000
-00
-00
--0
0--
000
00-
0-0
--0

Generation = 5, Population = 24.
-00
-11
11-
---
-20
102
5-2
---
2--
2--
--3
310
-32
-2-
-2-
--1

Generation = 10, Population = 27.
2--
--2
-22
--0
-5-
2-5
+-5
-1-
-4-
522
--6
--3
56-
331
476
-32

Generation = 15, Population = 23.
21-
-2-
3--
-3-
-61
-38
-66
13-
---
-72
01-
-4-
---
53-
7-7
--2

Generation = 20, Population = 22.
7--
---
456
4--
---
34-
+--
--4
-5-
7-5
5-6
-77
5-3
66-
--9
--3

Generation = 25, Population = 24.
-77
---
557
5--
-+1
5--
++8
-4-
755
---
---
+98
--4
7--
-7+
6--

*** Life<FredkinCell> 9x32 ***

Generation = 0, Population = 14.
--0-0---------------------------
----0-------------------------0-
-----0--------------------0-----
0----------------0--------------
---------------------0----------
---0--------0-------------------
------------------------------0-
------0---------------------0---
--------------------------------

Generation = 12, Population = 83.
-1---6--------2-0-0--0-------10-
2-22--31---11-----0-2-----------
-2---2---00-3-0------1---0------
--2--0------4-1--0--0---0---11--
-4---3----1-1----2----1--2----43
--31---21------1------3-0-----3-
-13-220-1----2---2---42--1------
0-------101--12-5-3-11---1------
-03-221-10---0-------2-------1--

*** Life<FredkinCell> 26x28 ***

Generation = 0, Population = 22.
----------------------------
----------------0-----------
----------------------------
------0----------------00---
-------0--------------------
----------------------------
----------------------------
---------0------0-----------
----------------------------
-------------------------0-0
-----0----------------------
----------------------------
--0-------------------------
----------------------------
----------------------------
-----------------------0----
---------0------------------
---0------------------------
-------------------0--------
--------------0-------------
--0-------------------------
--------------0-------------
----------------------------
--------0-------------------
-0------------------0-------
-----------0----------------

Generation = 12, Population = 220.
--0--0-0-------1------------
----0---1---0---2---11-22---
-1-2-----0-1----------------
-0--2---2--22----22-52-43---
1-----1--3-0-------0--------
---0----0---1---03-200-254-0
-0---1-1-----0-----0--------
02--12------23-21--101--35-1
----11-1--0--0-0------------
-------0----121322-313-1-0-0
-2---0---6-----2-3-----0----
-11------1-----012031--413-1
---1----43-2--1--1--1-------
----------0-----1103-0-2-2-0
-1---1-----0-1-----2-------0
----00-------01----211000--1
-1-----3-----1--0---21--0---
------224-----1------104-2-1
-1-----0-3-----1-------3-4--
1-1----2020---1---2----1-10-
-47-----3---2-1-11--2---0---
--102-----3-1-1---21-----101
-----2-----1---------------0
--2-0-0---166-2---2-1-3----0
1---310-010-1---1---0-------
2-----1-4-1---431-0---0-----

Generation = 24, Population = 176.
-----------------1--0-------
---2--2-41-0-2213-------+5-2
--4-41---403---------3-0---3
-------474-5---478-----8-46-
--2-4-----1-04----281----4--
5--5--6-2-------46-8-52+9---
---------0------------------
5-----55-----63--3-----8----
--4---------2------------1--
00-2-4-2---7--3-46-5-5-50---
-563---------5-3-3---2-----2
------21-------2-3-8--4+-92-
--6-6-----5-------4-7--0--1-
--------1-----3-3------44423
----------------------------
2----2--53-----4------2-----
--3-------1------------2----
------6-72-2-5-1---2--1-15-4
---3---4-9---1-------1------
4-------3-----612-3---75----
--8-------1-71-1--2-6-----1-
---------3-----0--5---3-33--
----------------------------
-0-----24-------4------4--4-
----7--3--2-5-----2--3------
5-----3-------8-51-3----1-2-

*** Life<FredkinCell> 6x23 ***

Generation = 0, Population = 28.
---0---------00----00--
---0---------0--------0
-----0------0-----0--0-
---0-0--0-------0-0-0-0
-00-00-------0-------0-
----000----------------

Generation = 16, Population = 59.
46--31----4-462-664-32-
-1-4-92----3----33656-3
-7326-------1-1---683--
2-46-+9-33+2446----1-4-
-9--------4--4------7--
---71-3--23-----1-4--5-

Generation = 32, Population = 59.
+-99------7-6+--798+---
-+-77+--2--+-8---9-+--4
---4-+------7+4---6963-
6-8--++-98+4+-+----8-8+
--+68-----9-+97---99---
-----8---++--6--4-6--72

*** Life<FredkinCell> 3x36 ***

Generation = 0, Population = 17.
---------0---------00---0---0-------
-00-----------------00-0----------0-
0------00------00---0---------------

Generation = 4, Population = 26.
-----0-------0-20---0--0----0---1---
22---01---------01-2----00-0--1---0-
--10------------2--32---0-----------

Generation = 8, Population = 30.
-1---------01---12--0------12---1---
----40---10-00-0----------0-0320----
1-----13----1--33------14---2-------

Generation = 12, Population = 43.
-3---3-33---22-4----22-1----2--03---
64---12----0-21-17-6--2-1203--4-0200
---34---6-3-3---5-------8--34---2---

Generation = 16, Population = 28.
---314--4---3------------5--2---3--1
----52-1----54---+----2----------2-2
2---6-56------3-7------6+------34---

Generation = 20, Population = 37.
55--2--5-4--5---2----3--3---44-630--
94-3-------3-6--3+0--4----1--6-5-2-4
2--6+---6--33-----14---------------3

Generation = 24, Population = 39.
55253------353--68------3--5-4--50--
-63-63---3--5642----55-----5-856----
6-5---------4-3-7-----48-------8-1--

Generation = 28, Population = 44.
-64-375--7--73-47+---6-4-8---6-9-2-4
------8---37-+----19---65-27---6-315
6-9-+-7-7-3-8---7--78-----1--3------

Generation = 32, Population = 30.
--8---7---459---7---5----------+----
--7---93-34------+-+6-------58---41-
----------7---59----+-7++4----3--2--

Generation = 36, Population = 42.
8-+----55-4-+-4+----6---3--7-------7
+-85-5----6+--777----7-6-3---95-5438
------9---96--7-7---+6--+--8+-----27

Generation = 40, Population = 50.
+-+5----7-5-+-6---677--74---7----5--
+8+-6----98+9-98-+5-79----2+6-99---+
--+---++----+-++882----+-7--+-5-+74-

*** Life<FredkinCell> 34x6 ***

Generation = 0, Population = 30.
0-----
-----0
------
0000-0
-0---0
------
-0----
------
----0-
------
---0--
------
--0-0-
------
----00
------
-0----
------
------
------
------
------
0--0--
--0--0
------
------
--0---
00-0--
------
------
----0-
0--0--
---0--
-0----

Generation = 1, Population = 76.
-0---0
0---0-
0000--
11-1-1
-1-001
-----0
0-0---
-0--0-
---0-0
---00-
--0-0-
--000-
-0---0
--0--0
---011
-0--00
0-0---
-0----
------
------
------
0--0--
-0--00
00--0-
--0--0
--0---
0-----
110-0-
00-0--
----0-
0----0
-001--
00010-
0-00--

Generation = 2, Population = 80.
--0---
100---
11---0
-20-02
-2---2
0000-1
-0-000
------
-001--
------
-01--0
------
0-00-1
------
-0-122
------
---000
------
-0----
------
0--0--
--0--0
010--1
1--010
0-10--
0010-0
1---0-
2210-0
--0-0-
-0----
--00--
0-1--0
-1--10
10----

Generation = 3, Population = 98.
0-10--
-1-0-0
-20--1
-31-13
--00--
1---0-
-10---
--0-00
01-20-
---0-0
01200-
00-0--
--11--
000-0-
0--2-3
-0----
--01-1
-0-000
0-0---
00-0--
-0--00
--1-01
------
--0---
-0-1--
1-2-0-
-0-0-0
--21--
0010--
0-000-
0--100
-02--1
02-12-
2-0-00

Generation = 4, Population = 72.
-02-00
-2-1-1
13----
1-212-
0--102
-----1
-2-0-0
0010-1
120--0
------
-2--1-
------
-0----
------
10--2-
------
-01-02
------
1--000
--0--0
-1----
------
----01
------
------
------
---10-
22-200
---1--
-0----
1-0-1-
0-3102
---2-0
30-0-1

Generation = 5, Population = 98.
0-301-
--0-02
----01
-332--
12--1-
10----
-301--
--2---
-3--01
0-0-00
0-20-0
----0-
0-1---
0---0-
2102-3
0-0--0
012-13
0000--
-0-1--
0----1
0----0
-0--01
---012
----10
------
---00-
100---
33-311
0-12-0
---00-
20112-
1--21-
-2--2-
41-1-2

Generation = 6, Population = 95.
------
12111-
-3----
---323
-3---2
-1-00-
--120-
-03-01
--02--
1010-1
1--1-1
------
1--1--
------
3-1324
------
12312-
--1--0
110200
1--002
1-----
--1--2
-101-3
------
---1-0
10-110
-111-0
4-----
1023-1
-001--
----30
20--22
03023-
5---0-

Generation = 7, Population = 104.
00301-
23--22
-4---1
--34--
140-13
120---
-3-31-
014--2
131---
--21-2
2--2-2
-----0
-01-0-
--0-00
--2--5
-0---0
2-4-3-
-0-001
--1311
----1-
21000-
0-2-03
0212-4
-00---
001201
2-22-1
1---01
53----
-13---
--1---
2-1---
----3-
14--4-
6-0-12

Generation = 8, Population = 77.
-1----
-4----
-5-0-2
13-5--
-51124
-----1
0--42-
------
-42---
-----3
-2-3--
0000-1
11--11
------
--33--
--0--1
---143
------
--24--
10-0--
--1-1-
------
-3-315
11101-
-1-3--
-0----
--1-1-
----11
---3--
0--1--
--213-
-03242
-5-2--
71---3

Generation = 9, Population = 102.
023---
2-11-2
---1--
243---
---2--
120-02
-3153-
01400-
1532-1
--210-
-3241-
----02
----2-
000000
-1-425
-010-2
---2--
--1-01
1-3-1-
21-1--
2--0-0
-020-3
-41-26
2-----
--14--
21-21-
----2-
--2--2
1-34-1
-0----
2-----
2-4-53
--03--
8-011-

Generation = 10, Population = 111.
-----0
34----
-50202
3-45--
--1--4
23---3
04-64-
------
-6-3--
103---
24352-
-00-13
111--1
11-1--
---536
0--103
-243--
0020-2
21442-
3202-2
31---1
--3-0-
---33-
---010
--2---
322--1
111-3-
533--3
-1-5-2
0--1-0
3-2-30
3-5264
-51-40
---223

Generation = 11, Population = 89.
02--1-
4--12-
1-13-3
-45---
--2-25
---0-4
---75-
0---0-
-73-0-
---10-
------
0110--
-----2
--02--
-1364-
---21-
2-54--
---10-
3---31
4-1-13
--10-2
0--01-
----4-
----21
0-3-0-
-332--
2-2--1
-----4
1236--
1--20-
--3--1
406--5
-6--51
-1-33-

Generation = 12, Population = 95.
-33-20
------
25--0-
-56-2-
--323-
---1-5
0-1---
--4--2
-843-1
-0-2-3
243-2-
1--113
11--2-
-----0
324--6
0013-3
--654-
------
414-4-
5-22-4
-1---3
-0----
0-----
2-1032
-1441-
34-3-1
-13-32
-3-315
-----2
2-1-1-
--4--2
51-2--
------
82-4--

Generation = 13, Population = 107.
044-31
4-1--2
3--313
---5-3
---3--
2-020-
--2---
0---03
1-5---
---304
-54-32
-1-2-4
-21-32
--0--1
-3--4-
-1--14
2--65-
00-1--
---4--
6--315
-2-014
-13--3
1-1346
31-143
0-5--1
45-4-2
-24--3
543426
123603
--2--0
--5---
626-65
------
93--3-

Generation = 14, Population = 102.
----4-
-42-2-
45---4
3-6-24
1----5
---315
-43--0
11-014
2-----
10341-
2-5--3
1-----
1--143
-11202
34-656
-21-25
326---
-1----
-14--1
--242-
-31-25
---01-
2--457
42--54
---4--
------
23-1--
---537
-3-714
2----1
3--13-
7---76
--1--1
+404-3

Generation = 15, Population = 103.
-44051
--3-3-
--1-15
-5--35
25333-
23-4-6
--475-
--41--
-85--1
2-4-2-
-56---
-1121-
2---5-
1----3
45---7
03-3--
4--653
--2--2
4-----
-23--5
34--36
01--23
3-1---
-311--
015--1
45----
34-2-3
5-364-
----25
3---12
-052-2
826---
--2---
+-15-4

Generation = 16, Population = 82.
055-62
---1-2
--2-2-
-66-4-
---4-5
------
0---6-
--5--4
-96---
------
--7---
--2--4
3-1-6-
-----4
5-4658
1--4--
5-----
-1---3
------
6-44-6
-5-0-7
1--0--
4-2-57
4--254
----1-
56-4--
4-433-
6447-7
--3-3-
--2--3
3-6333
937--6
-----1
---6--

Generation = 17, Population = 98.
1-607-
443--3
--333-
37-55-
-5--3-
2--416
-447--
1-61--
2+-3-1
-0----
-585-3
11-2--
--2--3
---205
6-57--
-3-5-5
6--6-3
--2-0-
4144--
-25--7
3-1--8
2--1--
------
53-3--
-1-42-
-7351-
----4-
------
1--7-5
30--14
407--4
------
162352
--1-34

Generation = 18, Population = 103.
25--8-
--413-
-5-4--
4-6-65
2634--
-3--27
0558-0
2--214
--64--
------
-6----
2--31-
3--1-4
1-1---
-568--
1-1--6
---754
--3---
52-5-1
6-6-28
452-39
31--23
-4----
6--4--
--55-1
5--622
-44-53
6--747
2-3-36
4---25
-183-5
---27-
2-3-6-
+-26--

Generation = 19, Population = 118.
36--92
4452-3
---535
5-7-76
-7453-
2-043-
-6----
3-63--
2+7--1
-044--
--853-
3-2-2-
-2-26-
2122-5
66-958
-325-7
6-68--
0--10-
-3--42
--74-9
56--4+
-2-1--
452457
---554
-16622
--3-33
455-64
7-48-8
---747
5----6
-2---6
937---
3-4-72
+--7--

Generation = 20, Population = 102.
----+-
-5----
-53-46
-78-8-
28-64-
---5-7
0-5-6-
4--414
-+840-
-----4
2-96-3
-13--4
33----
---3-6
-7-+-9
1-3628
72-9-4
1-----
---5--
6285--
6--05-
3-322-
56--6-
6-16-5
0277-3
57-644
--63-5
84----
-----8
---2--
43--37
-4-27-
-65383
+4---4

Generation = 21, Population = 104.
-6-0-2
46---3
46---7
-8-5--
3-4---
-3-6--
1---70
5-6--5
-+-5-1
20---5
-6-7--
3---25
4--2--
2-24-7
--6-5-
2-4--9
836+55
2----3
-3-64-
---6--
--21-+
-24333
67247-
----56
13882-
---7-5
-57-66
95-8--
23-74-
502---
5-83-8
--7-86
-7-49-
+--7-5

Generation = 22, Population = 111.
-7---3
-7523-
-73548
598-86
---6--
2-0--7
2-5-8-
61----
2+8---
314-26
27----
4--336
-3-3--
3---0-
-7-+-9
33--2+
9-7--6
313-04
----5-
-2---9
---25+
----4-
783587
---667
2--9-3
5-38-6
--8-7-
-64948
343-58
61-226
639439
9-8---
--5--3
--283-

Generation = 23, Population = 99.
38-0--
4863-3
-8-6--
6+----
-84---
3-1---
-66---
7-6-1-
3--501
4---37
3--7--
513--7
4--464
-1-4--
68---+
----3+
--8+5-
------
5-4662
6-862+
-6236-
3243-3
8--6--
-3-778
33--2-
6---47
4---86
------
----69
72---7
74+54-
+4--8-
37----
-4--4-

Generation = 24, Population = 94.
--61+3
---4--
4-3748
7+-5--
3--6--
---6--
27788-
81742-
-+-6--
-1-4--
------
6-43-8
53----
32-5--
7-6+-+
334---
-39---
3----4
6--77-
729---
6----+
-3544-
98----
64--89
--8--3
---85-
55-3--
9-----
34-77-
---228
8-----
+5--96
-85---
-528-5

Generation = 25, Population = 94.
-872-4
4-6-3-
584--9
8+8--6
4-4-4-
-3----
-88--0
--8--5
--8---
42-53-
379--3
7154--
6----4
4-2607
------
-45--+
9--+-6
4-31--
---88-
8-+-2+
76-3--
3---5-
-9-6-7
---79-
3---24
67--6-
-6-4--
-6--4-
-5----
-22-39
9--5--
---2+7
-9--9-
+-39--

Generation = 26, Population = 106.
-983+-
5--4-3
6957-+
9+95-7
5-5---
-41-37
2--881
---426
3-9-01
---64-
4--7--
82653-
-----5
5-3---
78-+5-
-56-3+
+-9+-7
5-42-4
--4---
92---+
872-6+
43-4--
---7--
641--9
4---35
--3-7-
----8-
9-4--8
3----9
--324+
---64-
+58-+8
---4+-
-54+--

Generation = 27, Population = 88.
-+-4+-
686-34
7+68--
++---8
6---4-
35-6--
-----2
-----7
----1-
------
5---3-
---64-
-3-4--
62--07
---+--
3-----
+3+-5-
6-5--5
--5---
--+--+
9-337-
--55-3
---887
--2--+
5--9--
67----
5--49-
+--9-9
45-7--
72435-
94+-59
+-9-+9
3-5---
+6----

Generation = 28, Population = 95.
-+85--
-----5
8-79--
+--5--
-8----
-6---7
28-883
-----8
---6--
4-----
-7--43
826--8
-4-565
7-3618
-86--+
4-663-
+-----
71-2--
63-8--
92----
--448+
43-6-4
--3--8
64-7-+
6---35
783-7-
--8-+-
--4-4-
5-3--9
8-54--
+5+66-
-5----
-964+3
-7----

Generation = 29, Population = 108.
3+-6+4
68--3-
9-8-4+
+--68-
-956-5
--16-8
3--9-4
81---9
3-9-11
---647
58-75-
9-7-4-
65--76
---729
797+5+
55--4-
--+-5-
8--30-
74-98-
----2+
-755--
54-75-
-9-88-
-52-9-
-38---
------
5----6
+6--5-
6-----
-26--+
-6+779
--9--9
3+---4
+8-+45

Generation = 30, Population = 90.
---7+5
7----5
-+-95+
+-9--8
-+6746
3--7--
4--+--
92-4--
4+-6-2
-2----
-99-6-
---6--
-6--8-
-----+
-+-+--
--6---
---+-7
9---15
-5--9-
9-+6-+
----8+
6558-4
--3-98
66-7++
6--93-
783--7
6-----
+749--
753-79
-----+
+----+
+5+---
---4--
---+--

Generation = 31, Population = 93.
3-88--
----3-
9-8+-+
--+68-
6+78--
4----8
--8-8-
+---29
-+-7--
---647
5-+7-3
----4-
6-2---
---7--
7-7-5+
---6-+
+---58
------
7---+2
-2+7-+
-7-59+
7-69--
-94--9
-72---
-3---5
8-4---
-6-4-6
+85+-9
-6-78-
-26---
+-+-7+
--+--9
3+-5+-
--4+4-

Generation = 32, Population = 60.
--99--
---4--
------
--+-9-
--8--6
5--7--
-8--94
--8--+
---81-
42-7--
--+--4
------
----8-
--3--+
----6-
------
-3--6-
------
--5-+-
------
-8-6--
------
--5-9-
68-7--
-48-3-
------
67-5-7
+--+5+
----9-
-----+
-6--8-
--+-++
4+----
+-5+-5

Generation = 33, Population = 95.
-++-+-
---53-
--8+5-
-++---
6+9---
------
----+-
----2+
4+--2-
5348-7
5---6-
--7-48
--25--
-2-72-
--7+--
-5----
+-++-8
-15---
-5---2
-2+72-
9---9-
-5695-
9--8-9
7---+-
--99-5
8-4877
-8-6+8
+-5-6-
7---+9
-2--5-
+--79+
+5---+
-+65+-
+86+--

Generation = 34, Population = 101.
3++9+5
-86-45
---+-+
--+-9-
7+-8--
561-3-
---++-
+2-43+
----32
64-9--
6---74
9286-9
----86
7--83+
-+8---
--6--+
---+--
------
7-59--
------
-8-6-+
76-+--
+--9--
8827-+
-4---6
-8--88
6-----
+8-+-+
8-37++
8-6--+
+6+8+-
----++
4+76+-
+97---

Generation = 35, Population = 86.
4++-+-
-----6
-+8--+
+-----
----4-
-72-48
----+-
+3----
---8--
-5--4-
-9+78-
---7--
-625-7
---94-
-+--6-
--7-4-
----68
9-5---
--6++-
92+--+
-9-7--
----54
-9--99
-9---+
---9--
-9489-
78-6+-
+95+6+
-6-8-+
-2-45+
--+--+
---2++
-+8---
-+--4-

Generation = 36, Population = 95.
5-+---
7----7
-+9+5+
--+-98
7+985-
583-59
4-8++-
+4843-
4-9---
66-957
6--8-4
--8--9
67-68-
------
7----+
------
+--+-9
--6--5
--7-+-
+3-7--
-+5---
------
++59-+
8+27-+
---+-6
-----8
-9-7+-
----7-
--3---
836--+
---8+-
-5+3--
4-9--4
++-+-5

Generation = 37, Population = 101.
6--9-5
8--5-8
-++-6+
++--+-
-+--66
694-6+
--9++-
+--5-+
--+8-2
774---
7--98-
---7-+
78279-
-2-94+
-+--6-
---6--
-3---+
917--6
7-8+--
+-----
--6---
7--+-4
-+6--+
-+38--
64-+--
-9---9
7--8--
-95-8+
8-48++
9-----
+-+-+-
-6+--+
5-+6+5
-+7--6
