25

8 10
3
2 3
3 4
4 5
5 2

12 15
20
2 2
2 3
3 2
3 3
0 0
1 2
3 4
4 4
2 1
2 0
0 4
0 1
0 2
0 3
3 3
3 2
2 1
3 1
2 4
3 3
10 3

10 7
2
1 6
1 2
15 1

14 12
20
2 2
2 3
3 2
3 3
0 0
1 2
3 4
4 4
2 1
2 0
0 4
0 1
0 2
0 3
3 3
3 2
2 1
3 1
2 4
3 3
20 4

18 20
6
15 10
16 11
17 12
8 13
9 14
2 15
25 5

5 6
1
3 2
30 5

11 13
3
6 7
7 8
8 9
35 6

15 9
2
5 2
10 8
40 7

16 14
20
2 2
2 3
3 2
3 3
0 0
1 2
3 4
4 4
2 1
2 0
0 4
0 1
0 2
0 3
3 3
3 2
2 1
3 1
2 4
3 3
45 7

9 18
3
2 9
5 10
8 17
60 9

19 17
15
8 8
9 8
10 8
9 7
9 9
8 9
7 3
8 2
3 9
4 0
11 11
12 12
13 13
14 14
0 0
65 10

6 8
4
1 2
3 4
5 6
5 7
70 10

20 19
20
7 7
8 8
9 9
7 8
8 9
9 7
7 4
11 0
0 6
0 4
1 1
1 12
12 8
3 4
3 3
2 7
12 8
3 8
12 13
0 0
75 11

7 8
7
4 3
5 6
3 3
4 4
5 5
4 4
1 1
80 12

21 22
11
10 11
12 13
14 15
20 19
20 20
20 21
3 3
4 4
5 5
13 13
14 14
85 12

22 23
20
7 7
8 8
9 9
7 8
8 9
9 7
7 4
11 0
0 6
0 4
1 1
1 12
12 8
3 4
3 3
2 7
12 8
3 8
12 13
0 0
90 13

23 21
20
11 10
12 11
20 19
21 20
7 5
8 3
8 5
0 0
11 2
5 7
8 2
4 12
13 9
6 14
7 15
10 12
21 5
8 2
2 2
3 4
95 14

24 24
20
7 7
8 8
9 9
7 8
8 9
9 7
7 4
11 0
0 6
0 4
1 1
1 12
12 8
3 4
3 3
2 7
12 8
3 8
12 13
0 0
100 15

23 23
20
2 2
2 3
3 2
3 3
0 0
1 2
3 4
4 4
2 1
2 0
0 4
0 1
0 2
0 3
3 3
3 2
2 1
3 1
2 4
3 3
105 5

7 7
5
3 3
3 4
4 3
4 4
4 5
25 5

8 8
20
4 4
0 0
0 1
0 2
0 3
0 4
0 5
0 7
0 6
1 1
1 2
1 3
1 4
1 5
1 6
1 7
4 5
7 3
4 1
3 3
30 6

9 9
20
5 5
6 6
7 7
0 0
0 1
0 2
8 3
8 2
6 2
1 2
1 1
1 3
1 4
7 5
3 2
1 6
1 4
1 1
3 7
4 5
35 7

10 10
20
2 2
3 3
8 8
9 9
1 2
1 3
1 4
1 5
4 3
8 2
7 2
6 3
3 3
2 2
5 3
1 6
1 7
7 5
8 3
2 2
40 8

17 14
15
8 8
9 8
10 8
9 7
9 9
8 9
7 3
8 2
3 9
4 0
11 11
12 12
13 13
14 13
0 0
55 8

13 11
5
1 1
1 2
2 3
4 5
6 7
1 1