*** Life<ConwayCell> 15x24 ***

Generation = 0, Population = 15.
........................
......................*.
.........*..............
.......................*
.......*................
..........*.............
.............*..........
...............*........
........................
......*..**.............
....*.....*.............
........................
........................
..*.....................
................**......

Generation = 18, Population = 4.
........................
........................
........................
........................
........................
........................
........................
........................
........................
.........**.............
.........**.............
........................
........................
........................
........................

Generation = 36, Population = 4.
........................
........................
........................
........................
........................
........................
........................
........................
........................
.........**.............
.........**.............
........................
........................
........................
........................

*** Life<ConwayCell> 22x6 ***

Generation = 0, Population = 24.
.....*
......
...*..
.....*
......
......
.....*
....**
......
....*.
....*.
.*.*.*
*.....
...*.*
*.....
.**...
*.....
......
...*..
*.*.*.
.*....
*.....

Generation = 8, Population = 21.
......
......
......
......
......
......
...**.
..*.**
..*...
.*....
.***..
......
......
.**...
*.*...
***...
......
......
......
**....
**....
......

Generation = 16, Population = 24.
......
......
......
......
......
...***
....**
.*..**
*..*..
.*.*..
......
......
......
......
..*...
*..**.
.***..
..*...
......
**....
**....
......

Generation = 24, Population = 16.
......
......
......
......
......
......
...*..
.**.**
*....*
......
*...*.
.***..
......
......
......
...**.
...**.
......
......
......
......
......

Generation = 32, Population = 20.
......
......
......
......
......
.**...
*.*...
***...
......
...*.*
..**.*
..**..
..*...
..**..
.**...
..*...
......
......
......
......
......
......

*** Life<ConwayCell> 19x36 ***

Generation = 0, Population = 11.
....................................
....................................
....................................
....................................
*................*..........*.......
....................................
.................................*..
......*.............................
....................................
....................................
..........*.........................
..............................*.....
.......**...........................
....................................
........................*...........
....................................
....................................
....................................
............................*.......

*** Life<ConwayCell> 49x40 ***

Generation = 0, Population = 19.
......................*.................
........................................
..........................*.............
........................................
........................................
........................................
........*...............................
..................................*.....
........................................
........................................
........................................
........................................
........................................
........................................
*.......................................
...................................*....
..........*.............................
........................................
........................................
........................................
........................................
........................................
........................................
........................................
..*.....................................
........................................
........................................
........................................
........................................
........................................
...................*....................
........................*...............
........................................
...........*............................
...........*............................
........................................
........................................
......*.................................
.....................*..................
........................................
................*.......................
....*...................................
..........*.......................*.....
........................................
........................................
........................................
.......................*................
........................................
........................................

Generation = 6, Population = 0.
........................................
........................................
........................................
........................................
........................................
........................................
........................................
........................................
........................................
........................................
........................................
........................................
........................................
........................................
........................................
........................................
........................................
........................................
........................................
........................................
........................................
........................................
........................................
........................................
........................................
........................................
........................................
........................................
........................................
........................................
........................................
........................................
........................................
........................................
........................................
........................................
........................................
........................................
........................................
........................................
........................................
........................................
........................................
........................................
........................................
........................................
........................................
........................................
........................................

Generation = 12, Population = 0.
........................................
........................................
........................................
........................................
........................................
........................................
........................................
........................................
........................................
........................................
........................................
........................................
........................................
........................................
........................................
........................................
........................................
........................................
........................................
........................................
........................................
........................................
........................................
........................................
........................................
........................................
........................................
........................................
........................................
........................................
........................................
........................................
........................................
........................................
........................................
........................................
........................................
........................................
........................................
........................................
........................................
........................................
........................................
........................................
........................................
........................................
........................................
........................................
........................................

Generation = 18, Population = 0.
........................................
........................................
........................................
........................................
........................................
........................................
........................................
........................................
........................................
........................................
........................................
........................................
........................................
........................................
........................................
........................................
........................................
........................................
........................................
........................................
........................................
........................................
........................................
........................................
........................................
........................................
........................................
........................................
........................................
........................................
........................................
........................................
........................................
........................................
........................................
........................................
........................................
........................................
........................................
........................................
........................................
........................................
........................................
........................................
........................................
........................................
........................................
........................................
........................................

*** Life<ConwayCell> 29x46 ***

Generation = 0, Population = 17.
..............................................
...........*..................................
..............................................
..............................................
..............................................
.............................................*
*.............................................
.............................................*
................*.............................
..............................................
..............................................
..............................................
..............................................
..............................................
.....*........................................
..............................*...............
..............................................
....*................................*........
*...............................*.............
..............................................
.........................................*....
..............................................
..............................................
..............*..*............................
...........................*..................
..............................................
..............................................
.............................................*
..........*...................................

Generation = 6, Population = 0.
..............................................
..............................................
..............................................
..............................................
..............................................
..............................................
..............................................
..............................................
..............................................
..............................................
..............................................
..............................................
..............................................
..............................................
..............................................
..............................................
..............................................
..............................................
..............................................
..............................................
..............................................
..............................................
..............................................
..............................................
..............................................
..............................................
..............................................
..............................................
..............................................

Generation = 12, Population = 0.
..............................................
..............................................
..............................................
..............................................
..............................................
..............................................
..............................................
..............................................
..............................................
..............................................
..............................................
..............................................
..............................................
..............................................
..............................................
..............................................
..............................................
..............................................
..............................................
..............................................
..............................................
..............................................
..............................................
..............................................
..............................................
..............................................
..............................................
..............................................
..............................................

Generation = 18, Population = 0.
..............................................
..............................................
..............................................
..............................................
..............................................
..............................................
..............................................
..............................................
..............................................
..............................................
..............................................
..............................................
..............................................
..............................................
..............................................
..............................................
..............................................
..............................................
..............................................
..............................................
..............................................
..............................................
..............................................
..............................................
..............................................
..............................................
..............................................
..............................................
..............................................

Generation = 24, Population = 0.
..............................................
..............................................
..............................................
..............................................
..............................................
..............................................
..............................................
..............................................
..............................................
..............................................
..............................................
..............................................
..............................................
..............................................
..............................................
..............................................
..............................................
..............................................
..............................................
..............................................
..............................................
..............................................
..............................................
..............................................
..............................................
..............................................
..............................................
..............................................
..............................................

*** Life<ConwayCell> 56x67 ***

Generation = 0, Population = 27.
...................................................................
...................................................................
...................................................................
...........................*...............*.......................
...................................................................
...................................................................
.............*...............................................*.....
...................................................................
...................................................................
...................................................................
........*..........................................................
...................................................................
...................................................................
...................................................................
...................................................................
............................................................*......
...................................................................
..............*....................................................
..........................*........................................
...................................................................
.....*.........................*...................................
...............*...................................................
...................................................................
..................................................*................
.......*...........................................................
...................................................................
...................................................................
...................................................................
...............................................*...................
........................*..........................................
...................................................................
......*............................................................
...................................................................
............................................................*...*..
................................*........................*.........
...................................................................
...................................................................
...................................................................
...................................................................
...................................................................
............................................................*......
..................................................................*
................................*..................................
...............................................................*...
..............................*....................................
...................................................................
...................................................................
...................................................................
...................................................................
...................................................................
.................................................................*.
...................................................................
.............................*.....................................
...................................................................
...................................................................
...................................................................

*** Life<ConwayCell> 63x5 ***

Generation = 0, Population = 18.
.....
.....
*....
.....
.....
..*..
.....
.....
.....
.....
.....
.**..
.....
.....
**...
..*..
..*..
.....
.....
.....
....*
...*.
.....
.....
.....
.....
.....
.....
.....
.....
..**.
.....
.....
.....
.....
.....
.....
*....
.....
.....
.....
.....
..*..
.....
.....
.....
.....
.....
.....
.....
.*...
..*..
.....
.....
.....
.....
.....
.....
..*..
.....
....*
.....
.....

Generation = 9, Population = 0.
.....
.....
.....
.....
.....
.....
.....
.....
.....
.....
.....
.....
.....
.....
.....
.....
.....
.....
.....
.....
.....
.....
.....
.....
.....
.....
.....
.....
.....
.....
.....
.....
.....
.....
.....
.....
.....
.....
.....
.....
.....
.....
.....
.....
.....
.....
.....
.....
.....
.....
.....
.....
.....
.....
.....
.....
.....
.....
.....
.....
.....
.....
.....

Generation = 18, Population = 0.
.....
.....
.....
.....
.....
.....
.....
.....
.....
.....
.....
.....
.....
.....
.....
.....
.....
.....
.....
.....
.....
.....
.....
.....
.....
.....
.....
.....
.....
.....
.....
.....
.....
.....
.....
.....
.....
.....
.....
.....
.....
.....
.....
.....
.....
.....
.....
.....
.....
.....
.....
.....
.....
.....
.....
.....
.....
.....
.....
.....
.....
.....
.....

*** Life<ConwayCell> 4x45 ***

Generation = 0, Population = 9.
.......*...................*.................
.........................................*...
...........................*....*...........*
..*........*..........*......................

Generation = 17, Population = 0.
.............................................
.............................................
.............................................
.............................................

Generation = 34, Population = 0.
.............................................
.............................................
.............................................
.............................................

*** Life<ConwayCell> 7x47 ***

Generation = 0, Population = 27.
............................................*..
...........*....*...............*..............
...*...........*..............*..*.............
......**........*...*...*..*......*..........*.
..........*...*...*....**......................
....*.....*..........................*.........
......*........*..................*............

Generation = 12, Population = 8.
...............................................
...............................................
...............**..............................
...............**......**......................
.......................**......................
...............................................
...............................................

Generation = 24, Population = 8.
...............................................
...............................................
...............**..............................
...............**......**......................
.......................**......................
...............................................
...............................................

*** Life<ConwayCell> 39x12 ***

Generation = 0, Population = 7.
............
............
............
............
............
............
............
............
............
............
............
..*.........
.........*..
............
............
............
............
............
............
............
............
............
......*...*.
............
............
............
............
............
............
.....*......
............
............
............
............
............
..*.........
............
............
..........*.

Generation = 2, Population = 0.
............
............
............
............
............
............
............
............
............
............
............
............
............
............
............
............
............
............
............
............
............
............
............
............
............
............
............
............
............
............
............
............
............
............
............
............
............
............
............

Generation = 4, Population = 0.
............
............
............
............
............
............
............
............
............
............
............
............
............
............
............
............
............
............
............
............
............
............
............
............
............
............
............
............
............
............
............
............
............
............
............
............
............
............
............

Generation = 6, Population = 0.
............
............
............
............
............
............
............
............
............
............
............
............
............
............
............
............
............
............
............
............
............
............
............
............
............
............
............
............
............
............
............
............
............
............
............
............
............
............
............

Generation = 8, Population = 0.
............
............
............
............
............
............
............
............
............
............
............
............
............
............
............
............
............
............
............
............
............
............
............
............
............
............
............
............
............
............
............
............
............
............
............
............
............
............
............

Generation = 10, Population = 0.
............
............
............
............
............
............
............
............
............
............
............
............
............
............
............
............
............
............
............
............
............
............
............
............
............
............
............
............
............
............
............
............
............
............
............
............
............
............
............

Generation = 12, Population = 0.
............
............
............
............
............
............
............
............
............
............
............
............
............
............
............
............
............
............
............
............
............
............
............
............
............
............
............
............
............
............
............
............
............
............
............
............
............
............
............

Generation = 14, Population = 0.
............
............
............
............
............
............
............
............
............
............
............
............
............
............
............
............
............
............
............
............
............
............
............
............
............
............
............
............
............
............
............
............
............
............
............
............
............
............
............

Generation = 16, Population = 0.
............
............
............
............
............
............
............
............
............
............
............
............
............
............
............
............
............
............
............
............
............
............
............
............
............
............
............
............
............
............
............
............
............
............
............
............
............
............
............

Generation = 18, Population = 0.
............
............
............
............
............
............
............
............
............
............
............
............
............
............
............
............
............
............
............
............
............
............
............
............
............
............
............
............
............
............
............
............
............
............
............
............
............
............
............

Generation = 20, Population = 0.
............
............
............
............
............
............
............
............
............
............
............
............
............
............
............
............
............
............
............
............
............
............
............
............
............
............
............
............
............
............
............
............
............
............
............
............
............
............
............

Generation = 22, Population = 0.
............
............
............
............
............
............
............
............
............
............
............
............
............
............
............
............
............
............
............
............
............
............
............
............
............
............
............
............
............
............
............
............
............
............
............
............
............
............
............

Generation = 24, Population = 0.
............
............
............
............
............
............
............
............
............
............
............
............
............
............
............
............
............
............
............
............
............
............
............
............
............
............
............
............
............
............
............
............
............
............
............
............
............
............
............

Generation = 26, Population = 0.
............
............
............
............
............
............
............
............
............
............
............
............
............
............
............
............
............
............
............
............
............
............
............
............
............
............
............
............
............
............
............
............
............
............
............
............
............
............
............

Generation = 28, Population = 0.
............
............
............
............
............
............
............
............
............
............
............
............
............
............
............
............
............
............
............
............
............
............
............
............
............
............
............
............
............
............
............
............
............
............
............
............
............
............
............

*** Life<ConwayCell> 38x64 ***

Generation = 0, Population = 30.
................................................................
................................................................
................................................................
.......................................*........................
................................................................
.......................................*.......................*
................................................................
................................................................
.............*..................................................
................................................................
................................................................
.............*...................*..............................
.......................................................*........
................................................................
..............*.................................................
................................................................
...*............................................................
...............*................................................
.......................*............*...........................
..................*.............................................
................................................................
................................................................
......*.....*.......*...........................................
.............................................................*..
.....................*..........................................
................................................................
....................*...........................................
................................................................
..........................................*.....................
................................*...............................
................*...............................................
.....................................................*..........
................................................................
..............................................................*.
...........................*..................................*.
......................................................*......*..
.......................................*..........*.............
................................................................

Generation = 19, Population = 0.
................................................................
................................................................
................................................................
................................................................
................................................................
................................................................
................................................................
................................................................
................................................................
................................................................
................................................................
................................................................
................................................................
................................................................
................................................................
................................................................
................................................................
................................................................
................................................................
................................................................
................................................................
................................................................
................................................................
................................................................
................................................................
................................................................
................................................................
................................................................
................................................................
................................................................
................................................................
................................................................
................................................................
................................................................
................................................................
................................................................
................................................................
................................................................

*** Life<ConwayCell> 22x1 ***

Generation = 0, Population = 12.
.
*
*
*
.
.
.
.
*
*
.
*
*
*
*
.
.
.
*
*
.
*

Generation = 1, Population = 3.
.
.
*
.
.
.
.
.
.
.
.
.
*
*
.
.
.
.
.
.
.
.

Generation = 2, Population = 0.
.
.
.
.
.
.
.
.
.
.
.
.
.
.
.
.
.
.
.
.
.
.

Generation = 3, Population = 0.
.
.
.
.
.
.
.
.
.
.
.
.
.
.
.
.
.
.
.
.
.
.

Generation = 4, Population = 0.
.
.
.
.
.
.
.
.
.
.
.
.
.
.
.
.
.
.
.
.
.
.

Generation = 5, Population = 0.
.
.
.
.
.
.
.
.
.
.
.
.
.
.
.
.
.
.
.
.
.
.

Generation = 6, Population = 0.
.
.
.
.
.
.
.
.
.
.
.
.
.
.
.
.
.
.
.
.
.
.

Generation = 7, Population = 0.
.
.
.
.
.
.
.
.
.
.
.
.
.
.
.
.
.
.
.
.
.
.

Generation = 8, Population = 0.
.
.
.
.
.
.
.
.
.
.
.
.
.
.
.
.
.
.
.
.
.
.

Generation = 9, Population = 0.
.
.
.
.
.
.
.
.
.
.
.
.
.
.
.
.
.
.
.
.
.
.

Generation = 10, Population = 0.
.
.
.
.
.
.
.
.
.
.
.
.
.
.
.
.
.
.
.
.
.
.

Generation = 11, Population = 0.
.
.
.
.
.
.
.
.
.
.
.
.
.
.
.
.
.
.
.
.
.
.

Generation = 12, Population = 0.
.
.
.
.
.
.
.
.
.
.
.
.
.
.
.
.
.
.
.
.
.
.

Generation = 13, Population = 0.
.
.
.
.
.
.
.
.
.
.
.
.
.
.
.
.
.
.
.
.
.
.

Generation = 14, Population = 0.
.
.
.
.
.
.
.
.
.
.
.
.
.
.
.
.
.
.
.
.
.
.

Generation = 15, Population = 0.
.
.
.
.
.
.
.
.
.
.
.
.
.
.
.
.
.
.
.
.
.
.

Generation = 16, Population = 0.
.
.
.
.
.
.
.
.
.
.
.
.
.
.
.
.
.
.
.
.
.
.

Generation = 17, Population = 0.
.
.
.
.
.
.
.
.
.
.
.
.
.
.
.
.
.
.
.
.
.
.

Generation = 18, Population = 0.
.
.
.
.
.
.
.
.
.
.
.
.
.
.
.
.
.
.
.
.
.
.

Generation = 19, Population = 0.
.
.
.
.
.
.
.
.
.
.
.
.
.
.
.
.
.
.
.
.
.
.

Generation = 20, Population = 0.
.
.
.
.
.
.
.
.
.
.
.
.
.
.
.
.
.
.
.
.
.
.

Generation = 21, Population = 0.
.
.
.
.
.
.
.
.
.
.
.
.
.
.
.
.
.
.
.
.
.
.

Generation = 22, Population = 0.
.
.
.
.
.
.
.
.
.
.
.
.
.
.
.
.
.
.
.
.
.
.

Generation = 23, Population = 0.
.
.
.
.
.
.
.
.
.
.
.
.
.
.
.
.
.
.
.
.
.
.

Generation = 24, Population = 0.
.
.
.
.
.
.
.
.
.
.
.
.
.
.
.
.
.
.
.
.
.
.

Generation = 25, Population = 0.
.
.
.
.
.
.
.
.
.
.
.
.
.
.
.
.
.
.
.
.
.
.

Generation = 26, Population = 0.
.
.
.
.
.
.
.
.
.
.
.
.
.
.
.
.
.
.
.
.
.
.

Generation = 27, Population = 0.
.
.
.
.
.
.
.
.
.
.
.
.
.
.
.
.
.
.
.
.
.
.

Generation = 28, Population = 0.
.
.
.
.
.
.
.
.
.
.
.
.
.
.
.
.
.
.
.
.
.
.

Generation = 29, Population = 0.
.
.
.
.
.
.
.
.
.
.
.
.
.
.
.
.
.
.
.
.
.
.

Generation = 30, Population = 0.
.
.
.
.
.
.
.
.
.
.
.
.
.
.
.
.
.
.
.
.
.
.

Generation = 31, Population = 0.
.
.
.
.
.
.
.
.
.
.
.
.
.
.
.
.
.
.
.
.
.
.

Generation = 32, Population = 0.
.
.
.
.
.
.
.
.
.
.
.
.
.
.
.
.
.
.
.
.
.
.

Generation = 33, Population = 0.
.
.
.
.
.
.
.
.
.
.
.
.
.
.
.
.
.
.
.
.
.
.

Generation = 34, Population = 0.
.
.
.
.
.
.
.
.
.
.
.
.
.
.
.
.
.
.
.
.
.
.

Generation = 35, Population = 0.
.
.
.
.
.
.
.
.
.
.
.
.
.
.
.
.
.
.
.
.
.
.

Generation = 36, Population = 0.
.
.
.
.
.
.
.
.
.
.
.
.
.
.
.
.
.
.
.
.
.
.

Generation = 37, Population = 0.
.
.
.
.
.
.
.
.
.
.
.
.
.
.
.
.
.
.
.
.
.
.

Generation = 38, Population = 0.
.
.
.
.
.
.
.
.
.
.
.
.
.
.
.
.
.
.
.
.
.
.

Generation = 39, Population = 0.
.
.
.
.
.
.
.
.
.
.
.
.
.
.
.
.
.
.
.
.
.
.

Generation = 40, Population = 0.
.
.
.
.
.
.
.
.
.
.
.
.
.
.
.
.
.
.
.
.
.
.

Generation = 41, Population = 0.
.
.
.
.
.
.
.
.
.
.
.
.
.
.
.
.
.
.
.
.
.
.

Generation = 42, Population = 0.
.
.
.
.
.
.
.
.
.
.
.
.
.
.
.
.
.
.
.
.
.
.

Generation = 43, Population = 0.
.
.
.
.
.
.
.
.
.
.
.
.
.
.
.
.
.
.
.
.
.
.

Generation = 44, Population = 0.
.
.
.
.
.
.
.
.
.
.
.
.
.
.
.
.
.
.
.
.
.
.

*** Life<ConwayCell> 64x67 ***

Generation = 0, Population = 28.
.*.................................................................
.......*.........................*.................................
...................................................................
................................................................*..
...................................................................
...................................................................
.................*.......................................*.........
......................*............................................
...................................................................
....*..............................*...............................
...................................................................
...................................................................
...................................................................
...................................................................
.........*.........................................................
......................................................*............
...................................................................
................................*..................................
...................................................................
...................................................................
...................................................................
................*..................................................
...................................................................
....................*...........................................*..
...................................................................
...................................................................
...................................................................
...................*......................*........................
...................................................................
..*................................................................
...................................................................
...................................................................
...................................................................
........................................*..........................
...................................................................
...................................................................
...................................................................
.............*.....................................................
...................................................................
...................................................................
..........................................................*........
*..................................................................
...................................................................
...................................................................
.............................*.............*.......................
...................................................................
...................................................................
...................................................................
...................................................................
...................................................................
...................................................................
...................................................................
...................................................................
...................................................................
...................................................................
...................................................................
..........................................................*........
..............*...................................*................
...................................................................
...............*...................................................
...................................................................
...................................................................
...................................................................
...................................................................

Generation = 4, Population = 0.
...................................................................
...................................................................
...................................................................
...................................................................
...................................................................
...................................................................
...................................................................
...................................................................
...................................................................
...................................................................
...................................................................
...................................................................
...................................................................
...................................................................
...................................................................
...................................................................
...................................................................
...................................................................
...................................................................
...................................................................
...................................................................
...................................................................
...................................................................
...................................................................
...................................................................
...................................................................
...................................................................
...................................................................
...................................................................
...................................................................
...................................................................
...................................................................
...................................................................
...................................................................
...................................................................
...................................................................
...................................................................
...................................................................
...................................................................
...................................................................
...................................................................
...................................................................
...................................................................
...................................................................
...................................................................
...................................................................
...................................................................
...................................................................
...................................................................
...................................................................
...................................................................
...................................................................
...................................................................
...................................................................
...................................................................
...................................................................
...................................................................
...................................................................
...................................................................
...................................................................
...................................................................
...................................................................
...................................................................
...................................................................

Generation = 8, Population = 0.
...................................................................
...................................................................
...................................................................
...................................................................
...................................................................
...................................................................
...................................................................
...................................................................
...................................................................
...................................................................
...................................................................
...................................................................
...................................................................
...................................................................
...................................................................
...................................................................
...................................................................
...................................................................
...................................................................
...................................................................
...................................................................
...................................................................
...................................................................
...................................................................
...................................................................
...................................................................
...................................................................
...................................................................
...................................................................
...................................................................
...................................................................
...................................................................
...................................................................
...................................................................
...................................................................
...................................................................
...................................................................
...................................................................
...................................................................
...................................................................
...................................................................
...................................................................
...................................................................
...................................................................
...................................................................
...................................................................
...................................................................
...................................................................
...................................................................
...................................................................
...................................................................
...................................................................
...................................................................
...................................................................
...................................................................
...................................................................
...................................................................
...................................................................
...................................................................
...................................................................
...................................................................
...................................................................
...................................................................
...................................................................

*** Life<ConwayCell> 6x67 ***

Generation = 0, Population = 9.
...............................*....*..............................
.....*.............................................................
...................................................................
....................................*..............................
.......*...................*.......................................
.........*....................................................*..*.

*** Life<ConwayCell> 23x2 ***

Generation = 0, Population = 2.
..
..
*.
..
..
..
..
..
..
..
*.
..
..
..
..
..
..
..
..
..
..
..
..

Generation = 1, Population = 0.
..
..
..
..
..
..
..
..
..
..
..
..
..
..
..
..
..
..
..
..
..
..
..

Generation = 2, Population = 0.
..
..
..
..
..
..
..
..
..
..
..
..
..
..
..
..
..
..
..
..
..
..
..

Generation = 3, Population = 0.
..
..
..
..
..
..
..
..
..
..
..
..
..
..
..
..
..
..
..
..
..
..
..

Generation = 4, Population = 0.
..
..
..
..
..
..
..
..
..
..
..
..
..
..
..
..
..
..
..
..
..
..
..

Generation = 5, Population = 0.
..
..
..
..
..
..
..
..
..
..
..
..
..
..
..
..
..
..
..
..
..
..
..

Generation = 6, Population = 0.
..
..
..
..
..
..
..
..
..
..
..
..
..
..
..
..
..
..
..
..
..
..
..

Generation = 7, Population = 0.
..
..
..
..
..
..
..
..
..
..
..
..
..
..
..
..
..
..
..
..
..
..
..

Generation = 8, Population = 0.
..
..
..
..
..
..
..
..
..
..
..
..
..
..
..
..
..
..
..
..
..
..
..

Generation = 9, Population = 0.
..
..
..
..
..
..
..
..
..
..
..
..
..
..
..
..
..
..
..
..
..
..
..

Generation = 10, Population = 0.
..
..
..
..
..
..
..
..
..
..
..
..
..
..
..
..
..
..
..
..
..
..
..

Generation = 11, Population = 0.
..
..
..
..
..
..
..
..
..
..
..
..
..
..
..
..
..
..
..
..
..
..
..

Generation = 12, Population = 0.
..
..
..
..
..
..
..
..
..
..
..
..
..
..
..
..
..
..
..
..
..
..
..

Generation = 13, Population = 0.
..
..
..
..
..
..
..
..
..
..
..
..
..
..
..
..
..
..
..
..
..
..
..

Generation = 14, Population = 0.
..
..
..
..
..
..
..
..
..
..
..
..
..
..
..
..
..
..
..
..
..
..
..

Generation = 15, Population = 0.
..
..
..
..
..
..
..
..
..
..
..
..
..
..
..
..
..
..
..
..
..
..
..

Generation = 16, Population = 0.
..
..
..
..
..
..
..
..
..
..
..
..
..
..
..
..
..
..
..
..
..
..
..

Generation = 17, Population = 0.
..
..
..
..
..
..
..
..
..
..
..
..
..
..
..
..
..
..
..
..
..
..
..

Generation = 18, Population = 0.
..
..
..
..
..
..
..
..
..
..
..
..
..
..
..
..
..
..
..
..
..
..
..

Generation = 19, Population = 0.
..
..
..
..
..
..
..
..
..
..
..
..
..
..
..
..
..
..
..
..
..
..
..

Generation = 20, Population = 0.
..
..
..
..
..
..
..
..
..
..
..
..
..
..
..
..
..
..
..
..
..
..
..

Generation = 21, Population = 0.
..
..
..
..
..
..
..
..
..
..
..
..
..
..
..
..
..
..
..
..
..
..
..

Generation = 22, Population = 0.
..
..
..
..
..
..
..
..
..
..
..
..
..
..
..
..
..
..
..
..
..
..
..

Generation = 23, Population = 0.
..
..
..
..
..
..
..
..
..
..
..
..
..
..
..
..
..
..
..
..
..
..
..

Generation = 24, Population = 0.
..
..
..
..
..
..
..
..
..
..
..
..
..
..
..
..
..
..
..
..
..
..
..

Generation = 25, Population = 0.
..
..
..
..
..
..
..
..
..
..
..
..
..
..
..
..
..
..
..
..
..
..
..

Generation = 26, Population = 0.
..
..
..
..
..
..
..
..
..
..
..
..
..
..
..
..
..
..
..
..
..
..
..

Generation = 27, Population = 0.
..
..
..
..
..
..
..
..
..
..
..
..
..
..
..
..
..
..
..
..
..
..
..

Generation = 28, Population = 0.
..
..
..
..
..
..
..
..
..
..
..
..
..
..
..
..
..
..
..
..
..
..
..

Generation = 29, Population = 0.
..
..
..
..
..
..
..
..
..
..
..
..
..
..
..
..
..
..
..
..
..
..
..

Generation = 30, Population = 0.
..
..
..
..
..
..
..
..
..
..
..
..
..
..
..
..
..
..
..
..
..
..
..

Generation = 31, Population = 0.
..
..
..
..
..
..
..
..
..
..
..
..
..
..
..
..
..
..
..
..
..
..
..

Generation = 32, Population = 0.
..
..
..
..
..
..
..
..
..
..
..
..
..
..
..
..
..
..
..
..
..
..
..

*** Life<ConwayCell> 69x61 ***

Generation = 0, Population = 26.
.............................................................
.............................................................
.............................................................
.............................................................
.............................................................
.............................................................
.............................................................
............................................................*
...................................................*.........
.............................................................
............................*................................
.............................................................
.............................................................
.............................................................
.............................................................
.............................................................
.............................................................
.............................................................
.............................................................
.............................................................
................................................*............
.............................................................
.............................................................
...............**............................................
.............................................................
...................................*.........................
.............................................................
..........................*..................................
.............................................................
.............................................................
.............................................................
.............................................................
.............................................................
.............................................................
.............................................................
.............................................................
.............................................................
................................................*....*.......
.............................................................
...........................*.................................
.............................................................
.............................................................
.............................................................
.............................................................
.............................................................
.....................................*.................*.....
.............................*.....................*.........
.............................................................
..................*................*.........................
.............................................................
.............................................................
.............................................................
..............*..............................................
.............................................................
.............*..................*.........*..................
.............................................................
.............................................................
.............................................................
.......................*.....*........................*......
.............................................................
.............................................................
.............................................................
.............................................................
.................................*...................*.......
.............................................................
.............................................................
.............................................................
.............................................................
.............................................................

*** Life<ConwayCell> 32x1 ***

Generation = 0, Population = 19.
*
*
*
.
*
*
*
*
*
*
*
*
*
.
.
*
.
.
.
.
*
.
.
.
*
*
.
.
.
*
*
*

*** Life<ConwayCell> 38x18 ***

Generation = 0, Population = 6.
*.................
..................
..................
..................
..................
..................
..................
..................
..................
..................
..................
..................
........*.........
....*.............
..................
..................
.........*........
..................
..................
..................
..................
..................
*.................
..................
..................
..................
..................
..................
..................
..................
..................
..................
..................
..................
..................
...............*..
..................
..................

*** Life<ConwayCell> 42x18 ***

Generation = 0, Population = 24.
.*........*.......
..................
..................
.*.....*..........
..................
..................
..................
.......*..........
................*.
..............*...
.*................
..........*......*
.......*..........
.....*............
...*..............
..................
..................
..................
..................
..................
..................
...............*..
..................
.......*........*.
.*................
..................
..................
*.................
..........*.......
.*................
..................
.............*....
...*..............
..................
*.................
..................
.............*....
..................
..................
..................
..................
..................

Generation = 15, Population = 0.
..................
..................
..................
..................
..................
..................
..................
..................
..................
..................
..................
..................
..................
..................
..................
..................
..................
..................
..................
..................
..................
..................
..................
..................
..................
..................
..................
..................
..................
..................
..................
..................
..................
..................
..................
..................
..................
..................
..................
..................
..................
..................

*** Life<ConwayCell> 43x4 ***

Generation = 0, Population = 2.
....
....
....
....
....
....
....
....
....
....
....
....
....
....
....
....
....
....
....
.*..
....
.*..
....
....
....
....
....
....
....
....
....
....
....
....
....
....
....
....
....
....
....
....
....

Generation = 8, Population = 0.
....
....
....
....
....
....
....
....
....
....
....
....
....
....
....
....
....
....
....
....
....
....
....
....
....
....
....
....
....
....
....
....
....
....
....
....
....
....
....
....
....
....
....

Generation = 16, Population = 0.
....
....
....
....
....
....
....
....
....
....
....
....
....
....
....
....
....
....
....
....
....
....
....
....
....
....
....
....
....
....
....
....
....
....
....
....
....
....
....
....
....
....
....
