21

22 17
40
2 9
11 2
7 10
14 6
21 6
5 10
17 16
6 16
4 10
13 5
9 16
10 8
6 13
3 1
5 1
20 8
3 1
11 5
20 14
10 7
17 5
3 12
3 0
15 6
14 10
6 7
5 13
15 12
11 10
7 11
12 5
14 9
7 14
9 14
8 12
20 9
20 12
14 4
11 10
10 0
301 40

3 37
3
0 2
2 25
2 16
181 44

40 13
39
3 11
9 5
23 3
17 9
8 5
24 6
24 12
29 2
22 6
6 0
4 6
19 8
13 6
3 2
35 11
16 4
10 3
24 8
7 5
14 12
33 4
2 7
2 11
18 0
24 3
4 12
21 7
20 10
27 10
1 7
16 11
26 12
21 6
15 9
31 5
25 10
10 10
6 1
20 3
229 99

36 10
30
2 5
15 1
23 6
1 8
32 2
0 2
32 1
30 0
11 9
29 9
17 8
15 1
21 4
16 1
26 3
7 2
19 6
32 0
1 8
22 3
0 6
23 5
31 7
5 7
9 7
1 0
30 9
18 4
35 9
26 0
176 49

1 35
9
0 14
0 16
0 17
0 32
0 18
0 31
0 10
0 19
0 1
262 93

12 29
39
6 11
0 24
8 1
2 15
2 19
0 15
2 3
1 26
8 23
3 20
9 20
4 15
2 3
11 16
3 13
5 12
3 7
7 9
7 20
2 16
10 17
8 13
11 6
9 1
11 23
10 1
3 28
0 8
1 16
0 5
6 2
4 20
6 25
1 19
3 4
0 8
4 3
8 2
6 4
252 184

22 14
19
12 3
19 4
17 1
19 6
1 3
18 7
16 5
10 12
13 2
15 8
3 12
13 12
1 11
19 3
21 8
2 5
21 4
14 10
14 10
127 56

7 1
34
0 0
1 0
4 0
1 0
5 0
6 0
6 0
2 0
2 0
2 0
0 0
1 0
0 0
6 0
3 0
4 0
4 0
6 0
3 0
2 0
6 0
6 0
5 0
6 0
4 0
0 0
4 0
6 0
4 0
0 0
3 0
0 0
0 0
1 0
114 78

12 14
23
9 12
3 9
7 8
9 9
10 11
7 12
10 13
0 7
10 6
2 0
4 9
6 4
0 2
4 7
7 10
9 6
9 8
8 1
8 6
10 11
8 7
0 0
1 12
233 133

23 34
39
2 23
17 22
10 13
4 14
16 18
10 11
20 17
11 1
8 4
2 28
16 32
7 19
8 1
2 23
8 19
14 8
18 22
14 3
6 1
19 7
5 32
5 27
8 23
8 8
12 10
3 2
22 27
5 4
22 14
1 11
10 22
11 23
4 0
6 0
7 31
1 14
11 11
6 10
21 10
35 183

16 40
20
8 14
0 19
7 36
8 13
8 16
3 15
5 19
3 27
1 39
5 21
5 25
2 29
1 24
8 9
10 32
8 25
1 14
0 18
4 5
0 22
167 178

19 14
34
6 9
15 0
15 10
8 8
9 9
4 11
11 7
14 2
15 1
14 9
0 13
15 0
0 8
6 2
13 2
8 9
11 4
1 9
7 12
8 3
18 10
17 3
5 7
13 5
1 11
5 5
3 4
9 1
4 7
7 0
9 10
10 9
2 12
12 11
166 183

25 3
18
10 2
16 2
5 1
7 0
3 0
13 2
20 1
17 1
3 2
24 1
13 2
15 1
18 2
17 1
13 0
1 1
23 2
24 2
80 53

18 12
33
9 1
15 7
13 2
11 9
17 8
12 9
3 2
10 0
2 9
14 9
8 0
3 2
9 5
13 1
5 6
1 3
16 5
0 1
11 3
17 10
11 6
12 0
17 6
3 3
12 3
7 8
10 10
17 11
12 9
15 10
8 8
7 7
12 11
214 180

17 36
28
5 11
4 3
12 19
15 32
4 11
15 30
9 5
15 22
13 30
3 23
9 20
5 35
8 25
10 35
0 27
9 11
3 14
14 11
6 29
4 7
4 1
8 34
9 24
2 7
4 1
15 4
7 7
11 5
114 104

36 35
5
4 2
11 34
1 31
5 19
27 31
356 140

29 25
19
2 15
21 7
8 10
2 24
26 9
20 11
15 23
17 9
22 24
15 15
21 20
4 0
6 12
26 13
13 5
22 0
7 20
26 15
15 14
44 90

2 33
22
1 23
1 1
0 27
0 18
1 32
0 25
1 21
0 26
0 3
0 16
1 31
0 12
0 2
0 20
0 1
1 30
0 16
0 32
1 28
1 1
1 30
1 23
292 144

22 12
2
10 3
3 3
75 83

17 3
16
15 2
10 1
14 0
11 2
10 0
12 2
12 1
14 1
10 0
3 0
9 2
6 2
9 0
10 1
14 2
3 1
170 20

26 38
7
2 6
12 4
5 34
3 0
17 16
17 12
4 16
494 147
