20

22 8
3
3 7
14 4
12 2
62 49

40 27
7
29 23
12 15
27 12
38 7
26 19
14 11
34 7
83 3

28 22
17
4 9
21 21
22 4
6 3
13 15
1 15
15 17
10 6
3 6
23 3
0 17
9 6
17 8
5 18
16 10
4 20
18 19
183 145

4 28
29
0 19
0 6
2 25
1 22
2 23
3 13
0 15
0 24
2 22
3 13
1 9
2 8
0 13
2 18
0 8
2 12
1 4
0 16
1 2
0 19
1 19
1 24
0 9
2 13
2 27
3 2
1 17
1 18
1 4
145 172

4 18
16
2 13
3 2
2 2
3 16
0 16
0 0
3 8
0 11
2 9
2 15
2 14
2 10
0 12
2 12
3 4
1 3
373 93

9 38
38
2 5
2 32
8 17
7 0
6 19
1 33
6 4
0 8
0 9
4 8
5 14
7 16
0 9
4 5
0 37
3 23
8 9
6 5
0 3
3 19
2 29
5 37
4 17
1 15
3 14
4 6
6 17
1 22
5 8
0 1
3 31
2 13
0 10
3 8
4 8
2 35
7 12
6 23
477 178

18 2
20
12 1
6 0
12 0
2 1
6 0
15 1
14 0
5 1
8 1
3 1
0 1
3 0
17 0
15 0
0 0
16 1
8 1
14 1
1 1
0 0
197 131

25 36
12
0 15
21 8
0 18
23 3
12 35
9 32
3 2
16 0
4 30
0 14
1 8
9 14
469 130

7 26
40
2 19
6 10
1 0
2 13
5 25
5 12
3 0
5 22
1 7
5 22
2 11
3 16
3 14
0 7
5 11
4 20
2 1
5 3
0 17
0 9
3 25
1 17
1 16
2 6
6 23
0 18
1 16
4 16
2 23
4 7
3 24
6 2
2 2
0 21
4 16
6 16
2 2
0 10
1 0
5 16
96 33

33 14
30
2 7
4 7
27 5
9 8
6 10
19 11
16 11
5 4
25 9
14 11
24 8
31 2
12 7
10 10
22 8
12 13
15 0
32 3
3 4
8 3
22 2
31 12
8 8
1 12
21 3
16 6
3 10
27 6
9 12
7 7
132 193

16 20
13
1 16
6 10
0 18
4 3
2 9
6 12
12 12
4 7
6 1
6 2
10 1
6 6
14 0
392 173

24 19
20
4 7
20 14
21 10
11 18
22 12
21 0
15 9
20 1
9 18
22 10
22 11
8 3
15 3
9 3
3 16
1 11
20 18
14 10
22 7
3 3
450 114

32 34
19
28 1
8 17
16 10
13 18
20 3
12 13
27 25
12 27
23 33
19 23
7 26
26 22
31 23
17 20
20 28
9 21
1 26
13 22
15 19
125 199

40 11
8
37 8
23 0
17 1
24 8
5 1
4 9
37 2
8 1
47 53

18 21
26
14 6
16 1
15 6
7 10
16 8
5 20
15 6
4 1
3 20
12 10
4 6
4 16
8 16
14 18
9 5
13 6
0 7
16 6
12 18
8 20
7 16
14 10
0 8
3 18
14 5
4 13
313 82

30 33
3
20 26
13 17
0 32
318 10

3 31
31
0 19
1 12
2 14
1 23
0 20
1 16
2 28
0 4
0 22
2 21
0 18
1 9
0 5
0 23
0 7
1 15
1 6
2 13
0 21
1 17
1 2
1 7
0 0
0 23
2 29
0 29
1 22
2 5
0 8
2 27
1 1
177 101

2 9
10
1 8
1 8
1 6
1 1
1 6
0 8
0 3
0 2
0 8
1 8
478 2

10 29
38
5 9
6 0
2 8
6 22
5 23
9 15
8 25
5 22
3 13
0 24
9 23
4 18
9 9
8 23
9 2
5 21
5 28
9 9
9 15
8 25
2 8
1 26
9 14
7 20
9 8
8 25
9 16
1 14
4 9
3 27
0 3
5 3
2 25
8 24
2 15
4 19
9 5
1 16
3 139

32 33
33
31 9
18 17
13 23
15 0
23 20
14 16
25 3
9 32
15 19
25 30
28 17
16 28
2 7
14 24
20 8
18 15
10 7
2 22
18 13
15 25
1 16
16 5
15 10
16 28
8 12
6 9
12 30
28 26
26 8
13 27
29 19
12 27
2 10
27 31
