*** Life<ConwayCell> 29x4 ***

Generation = 0, Population = 25.
....
..**
....
....
..**
...*
*..*
....
....
*.*.
....
*.**
....
....
..*.
**..
....
..*.
.*.*
...*
..*.
.*..
....
....
*...
.*..
.*..
...*
....

Generation = 48, Population = 8.
....
....
....
....
..**
..**
....
....
....
....
....
....
....
....
.*..
*.*.
.*..
....
....
....
....
....
....
....
....
....
....
....
....

Generation = 96, Population = 8.
....
....
....
....
..**
..**
....
....
....
....
....
....
....
....
.*..
*.*.
.*..
....
....
....
....
....
....
....
....
....
....
....
....

Generation = 144, Population = 8.
....
....
....
....
..**
..**
....
....
....
....
....
....
....
....
.*..
*.*.
.*..
....
....
....
....
....
....
....
....
....
....
....
....

*** Life<ConwayCell> 9x15 ***

Generation = 0, Population = 26.
............*.*
..*........*...
*..*..****.....
.......*.*..*..
*..*...*...*...
*......**......
...*......*....
*........*.....
......**.......

Generation = 77, Population = 6.
...............
...............
...............
..........*....
..........**...
..........**...
...........*...
...............
...............

Generation = 154, Population = 6.
...............
...............
...............
..........**...
.........*.....
............*..
..........**...
...............
...............

*** Life<ConwayCell> 20x13 ***

Generation = 0, Population = 20.
.....*.......
.........*...
.........*...
....*....*...
.......*.....
*..*...*.....
.............
.*......*....
.............
......*......
.....*.......
.*...........
.............
.............
..*..........
...**.......*
..*..........
.......*.....
.............
.............

Generation = 92, Population = 16.
.............
........**...
.......*..*..
.......*.*...
........*....
.............
.............
.............
.............
.............
.............
.............
..***........
.............
......*......
......*......
......*......
.............
..***........
.............

Generation = 184, Population = 16.
.............
........**...
.......*..*..
.......*.*...
........*....
.............
.............
.............
.............
.............
.............
.............
..***........
.............
......*......
......*......
......*......
.............
..***........
.............

*** Life<ConwayCell> 4x1 ***

Generation = 0, Population = 4.
*
*
*
*

Generation = 15, Population = 0.
.
.
.
.

Generation = 30, Population = 0.
.
.
.
.

Generation = 45, Population = 0.
.
.
.
.

Generation = 60, Population = 0.
.
.
.
.

Generation = 75, Population = 0.
.
.
.
.

Generation = 90, Population = 0.
.
.
.
.

Generation = 105, Population = 0.
.
.
.
.

Generation = 120, Population = 0.
.
.
.
.

Generation = 135, Population = 0.
.
.
.
.

Generation = 150, Population = 0.
.
.
.
.

Generation = 165, Population = 0.
.
.
.
.

Generation = 180, Population = 0.
.
.
.
.

Generation = 195, Population = 0.
.
.
.
.

Generation = 210, Population = 0.
.
.
.
.

Generation = 225, Population = 0.
.
.
.
.

*** Life<ConwayCell> 36x26 ***

Generation = 0, Population = 30.
..........................
..........................
..........................
.......*..................
.......**.................
............*.............
..........................
..*.................*.....
..........................
..............*..*..*.....
................*.........
..............*...........
.......................*.*
..........................
..........................
..........*...............
............*.............
..........*...............
..........................
....................*.....
..........................
.................*........
..........................
..............**..........
....................*.....
*..........*..............
..............*......*....
*.........................
..........................
..........................
................*.........
.....*....................
..........................
...*......................
..........................
......*...................

Generation = 49, Population = 4.
..........................
..........................
..........................
.......**.................
.......**.................
..........................
..........................
..........................
..........................
..........................
..........................
..........................
..........................
..........................
..........................
..........................
..........................
..........................
..........................
..........................
..........................
..........................
..........................
..........................
..........................
..........................
..........................
..........................
..........................
..........................
..........................
..........................
..........................
..........................
..........................
..........................

Generation = 98, Population = 4.
..........................
..........................
..........................
.......**.................
.......**.................
..........................
..........................
..........................
..........................
..........................
..........................
..........................
..........................
..........................
..........................
..........................
..........................
..........................
..........................
..........................
..........................
..........................
..........................
..........................
..........................
..........................
..........................
..........................
..........................
..........................
..........................
..........................
..........................
..........................
..........................
..........................

Generation = 147, Population = 4.
..........................
..........................
..........................
.......**.................
.......**.................
..........................
..........................
..........................
..........................
..........................
..........................
..........................
..........................
..........................
..........................
..........................
..........................
..........................
..........................
..........................
..........................
..........................
..........................
..........................
..........................
..........................
..........................
..........................
..........................
..........................
..........................
..........................
..........................
..........................
..........................
..........................

Generation = 196, Population = 4.
..........................
..........................
..........................
.......**.................
.......**.................
..........................
..........................
..........................
..........................
..........................
..........................
..........................
..........................
..........................
..........................
..........................
..........................
..........................
..........................
..........................
..........................
..........................
..........................
..........................
..........................
..........................
..........................
..........................
..........................
..........................
..........................
..........................
..........................
..........................
..........................
..........................

Generation = 245, Population = 4.
..........................
..........................
..........................
.......**.................
.......**.................
..........................
..........................
..........................
..........................
..........................
..........................
..........................
..........................
..........................
..........................
..........................
..........................
..........................
..........................
..........................
..........................
..........................
..........................
..........................
..........................
..........................
..........................
..........................
..........................
..........................
..........................
..........................
..........................
..........................
..........................
..........................

*** Life<ConwayCell> 15x45 ***

Generation = 0, Population = 30.
..*....*.....*....................*..........
.....*.*.........*............*..*..*...*....
....................*........*..........*....
.........*...................*...........*...
.......*................*....................
.............................................
.............................................
..........................................*..
..............**.............................
.*..........................*................
..................*..........................
.............................................
.........................*...................
.......................................*.*...
.....................*.*.....................

*** Life<ConwayCell> 50x21 ***

Generation = 0, Population = 23.
......*....*.......*.
*....................
.....................
.....................
.....................
.......*.............
.....................
.....................
.....................
.....................
.....................
.....................
..................*..
......*............**
.....................
.................*...
.....................
.....................
...........*.........
..................*..
.....................
.....................
.....................
.....................
.*...................
...................*.
..............*......
.....................
............*........
.....................
.....*...............
.....................
.....................
.......*.*...........
.....................
......*.......*......
.*...................
.....................
.....................
.....................
.....................
....*................
.....................
.....................
.....................
.....................
.....................
.....................
.....................
.....................

*** Life<ConwayCell> 41x32 ***

Generation = 0, Population = 9.
.....................*..........
...*............................
................................
................................
................................
................................
................................
................................
................................
................................
................................
................................
................................
................................
................................
................................
................................
..........*.....................
................................
..........*.............*.......
................................
................................
................................
..........*..*..................
................................
................................
................................
................................
.......*........................
................................
................................
................................
................................
.....................*..........
................................
................................
................................
................................
................................
................................
................................

Generation = 161, Population = 0.
................................
................................
................................
................................
................................
................................
................................
................................
................................
................................
................................
................................
................................
................................
................................
................................
................................
................................
................................
................................
................................
................................
................................
................................
................................
................................
................................
................................
................................
................................
................................
................................
................................
................................
................................
................................
................................
................................
................................
................................
................................

*** Life<ConwayCell> 14x44 ***

Generation = 0, Population = 27.
...*..*...*...*.....................*.......
............................................
..............*.......*.......*..*......*...
...................................*........
.............................*..............
............................................
.......................*.............*..*...
..........*..*..............................
............................................
....*.....................*.*...............
*...........................................
.......*.........*.........................*
...................*........................
.....*........*.............................

*** Life<ConwayCell> 12x12 ***

Generation = 0, Population = 6.
............
....*.......
............
............
............
............
............
........*...
............
............
...*.*......
......*..*..

Generation = 80, Population = 0.
............
............
............
............
............
............
............
............
............
............
............
............

Generation = 160, Population = 0.
............
............
............
............
............
............
............
............
............
............
............
............

Generation = 240, Population = 0.
............
............
............
............
............
............
............
............
............
............
............
............

*** Life<ConwayCell> 2x37 ***

Generation = 0, Population = 13.
..*.*............*.....*.............
..*...**.......*..**..*......*..*....

Generation = 138, Population = 0.
.....................................
.....................................

Generation = 276, Population = 0.
.....................................
.....................................

*** Life<ConwayCell> 30x19 ***

Generation = 0, Population = 35.
......*............
...**.........*....
*..............*...
.....*........*....
...................
.....*.............
.................*.
*............*...*.
..............*....
...................
...................
........*..........
.............*.....
.......*...*.......
....*....*..*......
..*..*...........*.
...........**......
.*..........*......
...................
.*.................
......*......*.....
...................
...................
............*......
...................
...................
...................
..................*
.....*.............
...............*...

*** Life<ConwayCell> 44x29 ***

Generation = 0, Population = 27.
.............*...............
................*............
.............................
.............................
..........................*..
..*..*.............*.........
.............................
.............................
.............*...............
....................*........
.............................
.............................
.............................
............*................
......*.......*..............
.............................
.............................
....................*........
.*...........................
......*......................
.............................
.....*.......................
........................*....
.............................
.............................
........*....................
........*....................
.................*...........
.............................
.............................
.................*...........
.............................
.............................
............*................
.................*.....*.....
.............................
.............................
.............................
..*..........................
..............*..............
.............................
.............................
.............*...............
..*..........................

Generation = 17, Population = 0.
.............................
.............................
.............................
.............................
.............................
.............................
.............................
.............................
.............................
.............................
.............................
.............................
.............................
.............................
.............................
.............................
.............................
.............................
.............................
.............................
.............................
.............................
.............................
.............................
.............................
.............................
.............................
.............................
.............................
.............................
.............................
.............................
.............................
.............................
.............................
.............................
.............................
.............................
.............................
.............................
.............................
.............................
.............................
.............................

Generation = 34, Population = 0.
.............................
.............................
.............................
.............................
.............................
.............................
.............................
.............................
.............................
.............................
.............................
.............................
.............................
.............................
.............................
.............................
.............................
.............................
.............................
.............................
.............................
.............................
.............................
.............................
.............................
.............................
.............................
.............................
.............................
.............................
.............................
.............................
.............................
.............................
.............................
.............................
.............................
.............................
.............................
.............................
.............................
.............................
.............................
.............................

Generation = 51, Population = 0.
.............................
.............................
.............................
.............................
.............................
.............................
.............................
.............................
.............................
.............................
.............................
.............................
.............................
.............................
.............................
.............................
.............................
.............................
.............................
.............................
.............................
.............................
.............................
.............................
.............................
.............................
.............................
.............................
.............................
.............................
.............................
.............................
.............................
.............................
.............................
.............................
.............................
.............................
.............................
.............................
.............................
.............................
.............................
.............................

Generation = 68, Population = 0.
.............................
.............................
.............................
.............................
.............................
.............................
.............................
.............................
.............................
.............................
.............................
.............................
.............................
.............................
.............................
.............................
.............................
.............................
.............................
.............................
.............................
.............................
.............................
.............................
.............................
.............................
.............................
.............................
.............................
.............................
.............................
.............................
.............................
.............................
.............................
.............................
.............................
.............................
.............................
.............................
.............................
.............................
.............................
.............................

Generation = 85, Population = 0.
.............................
.............................
.............................
.............................
.............................
.............................
.............................
.............................
.............................
.............................
.............................
.............................
.............................
.............................
.............................
.............................
.............................
.............................
.............................
.............................
.............................
.............................
.............................
.............................
.............................
.............................
.............................
.............................
.............................
.............................
.............................
.............................
.............................
.............................
.............................
.............................
.............................
.............................
.............................
.............................
.............................
.............................
.............................
.............................

Generation = 102, Population = 0.
.............................
.............................
.............................
.............................
.............................
.............................
.............................
.............................
.............................
.............................
.............................
.............................
.............................
.............................
.............................
.............................
.............................
.............................
.............................
.............................
.............................
.............................
.............................
.............................
.............................
.............................
.............................
.............................
.............................
.............................
.............................
.............................
.............................
.............................
.............................
.............................
.............................
.............................
.............................
.............................
.............................
.............................
.............................
.............................

Generation = 119, Population = 0.
.............................
.............................
.............................
.............................
.............................
.............................
.............................
.............................
.............................
.............................
.............................
.............................
.............................
.............................
.............................
.............................
.............................
.............................
.............................
.............................
.............................
.............................
.............................
.............................
.............................
.............................
.............................
.............................
.............................
.............................
.............................
.............................
.............................
.............................
.............................
.............................
.............................
.............................
.............................
.............................
.............................
.............................
.............................
.............................

Generation = 136, Population = 0.
.............................
.............................
.............................
.............................
.............................
.............................
.............................
.............................
.............................
.............................
.............................
.............................
.............................
.............................
.............................
.............................
.............................
.............................
.............................
.............................
.............................
.............................
.............................
.............................
.............................
.............................
.............................
.............................
.............................
.............................
.............................
.............................
.............................
.............................
.............................
.............................
.............................
.............................
.............................
.............................
.............................
.............................
.............................
.............................

Generation = 153, Population = 0.
.............................
.............................
.............................
.............................
.............................
.............................
.............................
.............................
.............................
.............................
.............................
.............................
.............................
.............................
.............................
.............................
.............................
.............................
.............................
.............................
.............................
.............................
.............................
.............................
.............................
.............................
.............................
.............................
.............................
.............................
.............................
.............................
.............................
.............................
.............................
.............................
.............................
.............................
.............................
.............................
.............................
.............................
.............................
.............................

Generation = 170, Population = 0.
.............................
.............................
.............................
.............................
.............................
.............................
.............................
.............................
.............................
.............................
.............................
.............................
.............................
.............................
.............................
.............................
.............................
.............................
.............................
.............................
.............................
.............................
.............................
.............................
.............................
.............................
.............................
.............................
.............................
.............................
.............................
.............................
.............................
.............................
.............................
.............................
.............................
.............................
.............................
.............................
.............................
.............................
.............................
.............................

Generation = 187, Population = 0.
.............................
.............................
.............................
.............................
.............................
.............................
.............................
.............................
.............................
.............................
.............................
.............................
.............................
.............................
.............................
.............................
.............................
.............................
.............................
.............................
.............................
.............................
.............................
.............................
.............................
.............................
.............................
.............................
.............................
.............................
.............................
.............................
.............................
.............................
.............................
.............................
.............................
.............................
.............................
.............................
.............................
.............................
.............................
.............................

Generation = 204, Population = 0.
.............................
.............................
.............................
.............................
.............................
.............................
.............................
.............................
.............................
.............................
.............................
.............................
.............................
.............................
.............................
.............................
.............................
.............................
.............................
.............................
.............................
.............................
.............................
.............................
.............................
.............................
.............................
.............................
.............................
.............................
.............................
.............................
.............................
.............................
.............................
.............................
.............................
.............................
.............................
.............................
.............................
.............................
.............................
.............................

Generation = 221, Population = 0.
.............................
.............................
.............................
.............................
.............................
.............................
.............................
.............................
.............................
.............................
.............................
.............................
.............................
.............................
.............................
.............................
.............................
.............................
.............................
.............................
.............................
.............................
.............................
.............................
.............................
.............................
.............................
.............................
.............................
.............................
.............................
.............................
.............................
.............................
.............................
.............................
.............................
.............................
.............................
.............................
.............................
.............................
.............................
.............................

Generation = 238, Population = 0.
.............................
.............................
.............................
.............................
.............................
.............................
.............................
.............................
.............................
.............................
.............................
.............................
.............................
.............................
.............................
.............................
.............................
.............................
.............................
.............................
.............................
.............................
.............................
.............................
.............................
.............................
.............................
.............................
.............................
.............................
.............................
.............................
.............................
.............................
.............................
.............................
.............................
.............................
.............................
.............................
.............................
.............................
.............................
.............................

Generation = 255, Population = 0.
.............................
.............................
.............................
.............................
.............................
.............................
.............................
.............................
.............................
.............................
.............................
.............................
.............................
.............................
.............................
.............................
.............................
.............................
.............................
.............................
.............................
.............................
.............................
.............................
.............................
.............................
.............................
.............................
.............................
.............................
.............................
.............................
.............................
.............................
.............................
.............................
.............................
.............................
.............................
.............................
.............................
.............................
.............................
.............................

*** Life<ConwayCell> 18x5 ***

Generation = 0, Population = 22.
*....
..*.*
*.*.*
.....
.....
.....
..*.*
.....
.....
*..**
***.*
*..*.
*..*.
.*.*.
.....
...*.
.....
.....

Generation = 45, Population = 6.
.....
.....
.....
.....
.....
.....
.....
...*.
..*.*
..*.*
...*.
.....
.....
.....
.....
.....
.....
.....

Generation = 90, Population = 6.
.....
.....
.....
.....
.....
.....
.....
...*.
..*.*
..*.*
...*.
.....
.....
.....
.....
.....
.....
.....

Generation = 135, Population = 6.
.....
.....
.....
.....
.....
.....
.....
...*.
..*.*
..*.*
...*.
.....
.....
.....
.....
.....
.....
.....

Generation = 180, Population = 6.
.....
.....
.....
.....
.....
.....
.....
...*.
..*.*
..*.*
...*.
.....
.....
.....
.....
.....
.....
.....

Generation = 225, Population = 6.
.....
.....
.....
.....
.....
.....
.....
...*.
..*.*
..*.*
...*.
.....
.....
.....
.....
.....
.....
.....

Generation = 270, Population = 6.
.....
.....
.....
.....
.....
.....
.....
...*.
..*.*
..*.*
...*.
.....
.....
.....
.....
.....
.....
.....

Generation = 315, Population = 6.
.....
.....
.....
.....
.....
.....
.....
...*.
..*.*
..*.*
...*.
.....
.....
.....
.....
.....
.....
.....

*** Life<ConwayCell> 30x13 ***

Generation = 0, Population = 5.
.....*.......
.............
.............
.............
.............
..........*..
.............
.............
*............
.............
.............
.............
.............
.............
.............
.............
.............
.............
.............
.............
.............
.............
.............
.............
...*.........
....*........
.............
.............
.............
.............

*** Life<ConwayCell> 3x48 ***

Generation = 0, Population = 14.
....*...............*.......*....*..*...........
..........*..................................*.*
.......*..........*....*.*..*...............*...

Generation = 96, Population = 0.
................................................
................................................
................................................

Generation = 192, Population = 0.
................................................
................................................
................................................

*** Life<ConwayCell> 41x26 ***

Generation = 0, Population = 17.
..........................
..........................
...............*......*...
..........................
..........................
..........................
..........................
..........*...............
..........................
..........................
.....*....................
..........*........*......
..........................
..........................
..........................
........................*.
...*......................
.......................*..
..........................
..........................
....*.....................
..........................
.......*..................
..........................
..........................
..*.......................
..........................
.........................*
..........................
..........................
......................*...
..........................
..........................
..........................
...............*..........
..........................
..........................
..........................
..........................
..........................
...........*...*..........

Generation = 98, Population = 0.
..........................
..........................
..........................
..........................
..........................
..........................
..........................
..........................
..........................
..........................
..........................
..........................
..........................
..........................
..........................
..........................
..........................
..........................
..........................
..........................
..........................
..........................
..........................
..........................
..........................
..........................
..........................
..........................
..........................
..........................
..........................
..........................
..........................
..........................
..........................
..........................
..........................
..........................
..........................
..........................
..........................

Generation = 196, Population = 0.
..........................
..........................
..........................
..........................
..........................
..........................
..........................
..........................
..........................
..........................
..........................
..........................
..........................
..........................
..........................
..........................
..........................
..........................
..........................
..........................
..........................
..........................
..........................
..........................
..........................
..........................
..........................
..........................
..........................
..........................
..........................
..........................
..........................
..........................
..........................
..........................
..........................
..........................
..........................
..........................
..........................

Generation = 294, Population = 0.
..........................
..........................
..........................
..........................
..........................
..........................
..........................
..........................
..........................
..........................
..........................
..........................
..........................
..........................
..........................
..........................
..........................
..........................
..........................
..........................
..........................
..........................
..........................
..........................
..........................
..........................
..........................
..........................
..........................
..........................
..........................
..........................
..........................
..........................
..........................
..........................
..........................
..........................
..........................
..........................
..........................

*** Life<ConwayCell> 37x12 ***

Generation = 0, Population = 11.
............
............
...*........
............
...*........
............
............
............
..*.........
...*........
............
............
............
.....*......
............
...........*
............
............
............
............
............
............
....*.......
............
............
...*..*.....
............
............
............
............
......*.....
........*...
............
............
............
............
............

*** Life<ConwayCell> 40x8 ***

Generation = 0, Population = 15.
........
........
........
........
.....*..
....*...
...*....
..*.....
........
........
......*.
.*....*.
........
..*.....
........
*.......
........
........
........
........
........
........
........
........
........
.*.*..*.
........
........
........
........
........
........
........
........
*.......
........
........
.......*
........
*.......

*** Life<ConwayCell> 34x15 ***

Generation = 0, Population = 9.
...............
............*..
...............
...............
..*............
...............
...............
..*............
.*.............
...............
...............
...............
...............
...............
...............
...............
...............
...............
...............
...............
...............
.........*.....
...............
...............
...............
.........*.....
.........*.....
...............
...............
...............
...............
.............*.
...............
..............*

Generation = 81, Population = 0.
...............
...............
...............
...............
...............
...............
...............
...............
...............
...............
...............
...............
...............
...............
...............
...............
...............
...............
...............
...............
...............
...............
...............
...............
...............
...............
...............
...............
...............
...............
...............
...............
...............
...............

Generation = 162, Population = 0.
...............
...............
...............
...............
...............
...............
...............
...............
...............
...............
...............
...............
...............
...............
...............
...............
...............
...............
...............
...............
...............
...............
...............
...............
...............
...............
...............
...............
...............
...............
...............
...............
...............
...............

Generation = 243, Population = 0.
...............
...............
...............
...............
...............
...............
...............
...............
...............
...............
...............
...............
...............
...............
...............
...............
...............
...............
...............
...............
...............
...............
...............
...............
...............
...............
...............
...............
...............
...............
...............
...............
...............
...............

*** Life<ConwayCell> 7x14 ***

Generation = 0, Population = 24.
......*.......
........*...*.
...*.*........
...****....*..
....*.*..*...*
***.........*.
.**..***....*.

Generation = 107, Population = 3.
..............
..............
..............
..............
..............
.....***......
..............
