21

24 7
30
22 2
23 3
21 3
20 4
12 4
20 2
4 5
16 6
8 5
17 3
23 6
16 2
12 3
10 5
5 6
18 2
3 1
9 2
2 1
15 3
6 6
2 1
16 6
18 4
15 0
11 4
1 1
18 5
4 0
3 3
130 110

8 25
9
0 24
1 23
2 5
5 23
4 0
7 22
1 10
0 21
2 0
302 188

7 9
33
2 0
2 1
0 2
2 4
3 2
5 1
4 6
6 1
1 4
6 8
6 0
2 5
3 5
4 5
6 5
3 4
5 6
0 5
4 4
5 6
1 8
3 1
0 6
6 1
5 2
6 5
5 4
2 1
3 7
5 7
4 2
3 4
5 3
302 126

6 17
17
5 11
3 0
5 9
4 4
0 9
0 5
0 14
1 14
2 4
2 14
0 10
2 1
5 14
1 8
2 10
5 8
1 0
37 181

15 12
10
4 2
2 9
14 7
9 2
13 8
12 2
11 7
8 11
3 11
5 0
292 53

33 28
27
13 5
30 20
29 15
6 21
24 14
24 6
17 11
28 2
2 4
10 4
0 26
20 17
8 22
21 23
5 22
16 13
25 0
18 0
19 14
28 4
15 4
11 15
12 18
9 5
1 23
21 10
16 3
297 34

5 3
32
2 0
1 1
3 2
0 0
4 2
1 0
4 0
2 2
2 0
0 0
4 1
1 1
4 2
1 2
0 0
1 1
0 0
1 0
2 0
1 1
1 1
0 1
4 1
4 2
0 2
1 1
3 2
1 2
1 0
1 2
1 0
3 1
221 160

47 31
21
31 16
1 2
44 12
35 2
28 10
33 29
27 4
14 28
5 16
5 7
44 17
43 11
32 19
46 14
37 5
40 1
8 14
33 17
26 4
27 16
36 23
9 72

31 47
9
12 41
6 35
18 28
16 2
8 25
22 42
24 42
2 31
13 45
166 71

32 3
20
5 0
18 1
17 1
27 2
11 0
14 0
15 1
31 2
5 1
3 1
5 1
14 2
5 1
8 1
20 1
10 0
26 2
7 2
8 2
22 0
170 124

4 20
13
3 19
2 0
2 11
3 9
2 15
0 16
2 0
2 10
1 0
1 6
3 14
2 17
0 18
90 122

9 24
10
3 2
0 2
6 8
6 6
5 18
4 0
3 14
0 12
4 6
4 22
327 196

42 34
17
30 23
26 33
10 19
3 22
34 29
21 14
22 22
27 20
34 16
39 7
8 10
39 10
40 25
12 23
25 19
22 27
32 8
104 60

44 36
10
34 10
34 5
25 35
14 12
36 9
8 10
5 35
36 3
36 0
36 33
314 180

27 24
30
2 12
0 2
26 7
8 13
12 14
24 21
2 16
14 19
13 1
8 15
16 10
25 5
11 1
2 3
19 20
2 23
16 14
19 15
11 20
7 7
16 5
8 19
16 6
10 3
26 6
15 22
1 6
0 9
8 20
13 19
145 31

2 3
27
0 1
1 0
1 0
1 2
1 0
0 1
0 1
1 1
1 1
1 1
1 1
0 1
1 1
1 2
1 1
1 0
0 2
1 1
1 1
0 0
0 1
0 0
1 2
1 1
1 2
1 1
0 2
275 50

18 24
27
6 22
17 19
11 11
2 20
8 7
6 0
15 17
1 23
1 19
8 7
6 14
9 16
0 18
3 8
2 0
6 3
12 5
15 9
3 7
5 1
2 11
16 6
17 2
12 8
9 1
11 16
8 1
59 47

31 5
7
13 4
1 3
28 0
24 0
24 4
4 3
13 4
119 93

10 26
20
4 9
2 9
6 15
8 0
7 18
6 24
7 6
9 2
8 16
4 16
9 0
6 5
4 8
3 7
6 7
3 10
2 15
1 12
2 0
1 13
78 38

11 7
12
8 6
9 4
2 2
3 0
5 2
8 0
8 1
8 4
6 3
7 3
3 1
10 1
238 176

17 17
14
1 0
8 14
2 8
3 12
7 3
15 12
11 3
9 10
13 5
8 7
6 11
8 3
2 4
8 11
384 118
