24

6 10
22
0 3
0 2
3 9
5 0
1 9
2 8
5 4
4 4
1 3
3 2
1 5
3 6
2 0
5 7
1 0
2 6
3 6
4 5
0 2
1 9
1 7
0 7
26 29

6 7
21
5 2
2 1
1 1
4 6
2 1
5 5
5 3
0 0
0 1
0 6
1 2
2 5
5 5
1 3
5 3
4 3
2 1
5 1
2 0
4 0
2 0
28 19

2 5
8
0 4
0 2
0 3
0 0
0 3
0 1
0 2
0 4
17 2

7 2
15
0 0
4 1
3 0
2 1
0 1
2 1
3 0
6 0
6 0
3 1
5 0
4 0
1 1
1 0
2 0
3 1

3 2
3
0 1
0 0
2 1
19 23

2 7
20
0 5
0 2
0 4
0 5
0 5
0 6
0 6
0 4
0 4
0 5
0 4
0 4
0 1
0 5
0 0
0 3
0 4
0 5
0 2
0 2
4 6

4 7
28
1 3
3 0
1 1
2 3
2 3
2 6
2 2
3 1
2 4
1 3
0 6
1 3
0 1
1 2
0 4
1 2
0 4
0 3
2 4
2 1
0 6
2 5
0 3
3 3
0 0
0 6
1 3
1 4
15 24

9 6
28
5 5
6 4
8 5
0 0
5 2
6 1
8 2
4 2
6 1
2 4
8 0
0 0
8 0
1 2
5 4
1 1
8 5
4 2
7 0
7 0
3 1
0 3
2 5
0 4
7 3
6 0
5 2
3 4
18 16

10 6
26
2 3
4 2
6 1
9 3
0 4
9 5
3 4
9 5
8 3
9 4
2 5
5 0
3 5
3 4
4 2
5 4
4 3
2 4
7 0
6 3
3 0
9 1
3 0
4 0
5 2
1 2
15 30

4 9
21
2 1
0 4
0 5
0 0
3 6
3 4
2 6
1 8
3 3
3 6
1 7
3 5
2 7
1 8
0 8
2 2
0 2
0 3
0 5
3 2
3 4
17 29

5 8
30
4 1
1 2
4 1
4 1
0 3
0 6
4 6
4 0
2 6
4 3
2 2
1 0
1 1
1 1
4 2
4 0
4 2
2 2
3 6
4 3
3 2
0 0
2 0
2 2
2 1
2 7
0 0
3 5
0 6
4 0
7 26

6 5
30
2 4
0 0
4 1
1 4
3 0
3 4
4 4
0 3
2 3
0 4
1 3
3 4
5 2
0 4
2 3
2 1
2 0
0 2
1 2
2 2
1 1
2 0
5 4
4 4
5 4
2 0
5 2
3 0
0 4
5 4
27 5

8 4
16
4 3
0 1
1 2
4 0
6 3
6 1
7 2
5 3
1 3
5 3
5 1
3 2
2 1
5 0
4 2
7 0
13 10

5 5
9
3 4
4 0
1 3
1 1
0 4
4 3
1 3
4 0
2 4
27 26

5 10
27
4 7
0 4
2 9
1 9
2 3
2 6
3 5
2 4
0 6
3 0
2 1
4 3
0 2
4 5
0 0
4 8
0 1
1 5
0 6
4 9
4 9
1 0
3 9
1 5
0 6
3 1
1 6
4 8

4 3
27
1 0
2 2
0 0
2 0
3 2
1 2
3 1
2 1
3 1
0 0
1 2
1 1
3 2
0 2
3 2
1 1
2 0
0 0
1 1
0 0
0 2
0 1
3 0
2 0
2 2
2 1
2 0
1 15

4 6
14
3 4
2 0
2 5
0 0
0 5
3 3
0 4
0 1
0 5
1 5
0 3
2 0
0 5
3 0
15 11

9 4
11
5 2
3 1
4 0
5 0
1 2
3 3
3 2
3 1
3 3
1 0
6 1
9 4

8 6
8
5 0
2 1
1 2
0 3
7 3
3 0
6 2
4 1
26 3

3 4
23
1 1
0 3
0 1
0 2
0 2
0 0
1 2
0 2
0 1
1 0
0 2
1 2
1 3
2 1
0 3
2 3
0 2
0 3
0 3
1 3
1 0
0 3
1 3
1 30

6 7
12
3 6
5 1
4 2
2 3
5 2
4 3
2 3
0 6
2 6
3 5
5 1
3 5
5 13

7 6
29
2 3
5 4
1 3
6 3
0 0
3 2
1 1
0 3
3 2
2 1
0 5
4 1
1 0
1 5
6 2
5 3
4 5
0 1
6 5
6 3
6 5
1 2
1 1
5 3
3 5
2 2
1 2
0 0
5 3
13 19

6 6
5
0 3
3 2
4 3
2 1
1 0
25 1

4 2
22
1 1
2 0
3 1
0 0
0 1
0 0
1 0
0 0
2 0
3 1
0 0
3 0
2 1
2 0
0 1
1 1
0 1
2 1
3 0
3 0
2 1
1 0
23 4
