*** Life<ConwayCell> 6x10 ***

Generation = 0, Population = 19.
..**...*..
*..*.*.*.*
*.....*.*.
..*...*..*
....**....
*...*..*..

*** Life<ConwayCell> 6x7 ***

Generation = 0, Population = 16.
**....*
.***...
**...*.
.......
*..*..*
.***.*.

Generation = 19, Population = 4.
.......
**.....
**.....
.......
.......
.......

*** Life<ConwayCell> 2x5 ***

Generation = 0, Population = 5.
*****
.....

Generation = 2, Population = 4.
.*.*.
.*.*.

Generation = 4, Population = 0.
.....
.....

Generation = 6, Population = 0.
.....
.....

Generation = 8, Population = 0.
.....
.....

Generation = 10, Population = 0.
.....
.....

Generation = 12, Population = 0.
.....
.....

Generation = 14, Population = 0.
.....
.....

Generation = 16, Population = 0.
.....
.....

*** Life<ConwayCell> 7x2 ***

Generation = 0, Population = 12.
**
**
**
**
**
*.
*.

Generation = 1, Population = 3.
**
..
..
..
..
*.
..

Generation = 2, Population = 0.
..
..
..
..
..
..
..

Generation = 3, Population = 0.
..
..
..
..
..
..
..

*** Life<ConwayCell> 3x2 ***

Generation = 0, Population = 3.
**
..
.*

*** Life<ConwayCell> 2x7 ***

Generation = 0, Population = 7.
*******
.......

*** Life<ConwayCell> 4x7 ***

Generation = 0, Population = 18.
**.**.*
.****..
.******
**.*...

*** Life<ConwayCell> 9x6 ***

Generation = 0, Population = 21.
*..**.
.**...
....**
.*..*.
..*...
..*.**
**..*.
*..*..
*.*..*

Generation = 16, Population = 6.
......
......
...**.
......
......
......
...**.
...**.
......

*** Life<ConwayCell> 10x6 ***

Generation = 0, Population = 22.
....*.
..*...
...***
*...**
*.**..
*.*.*.
.*.*..
*.....
...*..
.*.***

*** Life<ConwayCell> 4x9 ***

Generation = 0, Population = 17.
*.****..*
.......**
.**...**.
..*****..

*** Life<ConwayCell> 5x8 ***

Generation = 0, Population = 19.
*..*..*.
***.....
***...**
..*..**.
****..*.

*** Life<ConwayCell> 6x5 ***

Generation = 0, Population = 19.
*.***
.****
*****
*...*
.*..*
..*.*

Generation = 5, Population = 3.
.....
.....
.....
*.*..
.*...
.....

Generation = 10, Population = 0.
.....
.....
.....
.....
.....
.....

Generation = 15, Population = 0.
.....
.....
.....
.....
.....
.....

Generation = 20, Population = 0.
.....
.....
.....
.....
.....
.....

Generation = 25, Population = 0.
.....
.....
.....
.....
.....
.....

*** Life<ConwayCell> 8x4 ***

Generation = 0, Population = 15.
.*..
..**
.*..
..*.
*.**
**.*
.*.*
*.*.

Generation = 10, Population = 9.
..*.
...*
...*
...*
.*.*
..**
...*
....

*** Life<ConwayCell> 5x5 ***

Generation = 0, Population = 7.
....*
.*.*.
....*
....*
*..*.

Generation = 26, Population = 0.
.....
.....
.....
.....
.....

*** Life<ConwayCell> 5x10 ***

Generation = 0, Population = 23.
***.*.*...
*....**..*
.*.**.*..*
**...*...*
...*.*.***

*** Life<ConwayCell> 4x3 ***

Generation = 0, Population = 12.
***
***
***
***

*** Life<ConwayCell> 4x6 ***

Generation = 0, Population = 11.
**.***
.....*
*....*
*..**.

Generation = 11, Population = 0.
......
......
......
......

*** Life<ConwayCell> 9x4 ***

Generation = 0, Population = 9.
....
*.*.
....
.***
*...
*.*.
.*..
....
....

Generation = 4, Population = 10.
....
..*.
..**
.*.*
***.
**..
....
....
....

Generation = 8, Population = 6.
....
..**
.*.*
.**.
....
....
....
....
....

*** Life<ConwayCell> 8x6 ***

Generation = 0, Population = 8.
...*..
..*...
.*....
*.....
.*....
*.....
..*...
...*..

Generation = 3, Population = 7.
......
.*....
.**...
..**..
..*...
.*....
......
......

Generation = 6, Population = 12.
......
.**...
**.**.
.*..*.
.*..*.
..**..
......
......

Generation = 9, Population = 14.
*.....
*..**.
.....*
*.*..*
*...**
..***.
......
......

Generation = 12, Population = 11.
......
......
....**
.*.*.*
.*.*.*
......
..***.
......

Generation = 15, Population = 4.
......
......
....**
....**
......
......
......
......

Generation = 18, Population = 4.
......
......
....**
....**
......
......
......
......

Generation = 21, Population = 4.
......
......
....**
....**
......
......
......
......

Generation = 24, Population = 4.
......
......
....**
....**
......
......
......
......

*** Life<ConwayCell> 3x4 ***

Generation = 0, Population = 10.
****
****
.*.*

*** Life<ConwayCell> 6x7 ***

Generation = 0, Population = 9.
......*
.......
...*..*
.....**
..**...
.**....

*** Life<ConwayCell> 7x6 ***

Generation = 0, Population = 21.
**.*.*
****.*
.***..
..*..*
.*...*
...**.
..**.*

*** Life<ConwayCell> 6x6 ***

Generation = 0, Population = 5.
...*..
*.....
.*....
..*...
...*..
......

Generation = 1, Population = 2.
......
......
.*....
..*...
......
......

Generation = 2, Population = 0.
......
......
......
......
......
......

Generation = 3, Population = 0.
......
......
......
......
......
......

Generation = 4, Population = 0.
......
......
......
......
......
......

Generation = 5, Population = 0.
......
......
......
......
......
......

Generation = 6, Population = 0.
......
......
......
......
......
......

Generation = 7, Population = 0.
......
......
......
......
......
......

Generation = 8, Population = 0.
......
......
......
......
......
......

Generation = 9, Population = 0.
......
......
......
......
......
......

Generation = 10, Population = 0.
......
......
......
......
......
......

Generation = 11, Population = 0.
......
......
......
......
......
......

Generation = 12, Population = 0.
......
......
......
......
......
......

Generation = 13, Population = 0.
......
......
......
......
......
......

Generation = 14, Population = 0.
......
......
......
......
......
......

Generation = 15, Population = 0.
......
......
......
......
......
......

Generation = 16, Population = 0.
......
......
......
......
......
......

Generation = 17, Population = 0.
......
......
......
......
......
......

Generation = 18, Population = 0.
......
......
......
......
......
......

Generation = 19, Population = 0.
......
......
......
......
......
......

Generation = 20, Population = 0.
......
......
......
......
......
......

Generation = 21, Population = 0.
......
......
......
......
......
......

Generation = 22, Population = 0.
......
......
......
......
......
......

Generation = 23, Population = 0.
......
......
......
......
......
......

Generation = 24, Population = 0.
......
......
......
......
......
......

Generation = 25, Population = 0.
......
......
......
......
......
......

*** Life<ConwayCell> 4x2 ***

Generation = 0, Population = 8.
**
**
**
**

Generation = 4, Population = 0.
..
..
..
..

Generation = 8, Population = 0.
..
..
..
..

Generation = 12, Population = 0.
..
..
..
..

Generation = 16, Population = 0.
..
..
..
..

Generation = 20, Population = 0.
..
..
..
..
