*** Life<ConwayCell> 22x16 ***

Generation = 0, Population = 6.
................
................
................
.*.............*
................
................
................
................
....*...........
..............*.
................
..............*.
................
................
................
................
................
................
.............*..
................
................
................

Generation = 11, Population = 0.
................
................
................
................
................
................
................
................
................
................
................
................
................
................
................
................
................
................
................
................
................
................

Generation = 22, Population = 0.
................
................
................
................
................
................
................
................
................
................
................
................
................
................
................
................
................
................
................
................
................
................

*** Life<ConwayCell> 20x29 ***

Generation = 0, Population = 23.
...............*.......*....*
...........**................
.........*....*...........*..
.............................
*............................
.............................
...........................*.
..........*..................
..*...............*..........
............*................
.......................*....*
......................*......
........*....................
.*...........................
.........*...................
.............................
.............................
.....*.......................
.............*...............
..........*..................

Generation = 8, Population = 0.
.............................
.............................
.............................
.............................
.............................
.............................
.............................
.............................
.............................
.............................
.............................
.............................
.............................
.............................
.............................
.............................
.............................
.............................
.............................
.............................

*** Life<ConwayCell> 15x29 ***

Generation = 0, Population = 16.
........................*....
.......*.......*.............
*.........*..................
...*.........................
.............................
.............................
.....*...*...............*...
..........................*..
.....................*.......
.....*.......................
.............................
.........*...................
...*.............*...........
.............................
..........................*..

Generation = 20, Population = 0.
.............................
.............................
.............................
.............................
.............................
.............................
.............................
.............................
.............................
.............................
.............................
.............................
.............................
.............................
.............................

*** Life<ConwayCell> 10x19 ***

Generation = 0, Population = 9.
...................
...................
...................
....*..............
......*........*...
....*..*.....*.....
.............*.....
..*................
...................
............*......

*** Life<ConwayCell> 14x14 ***

Generation = 0, Population = 20.
........*.....
..............
..*.*....*....
..........*...
.....*...*....
.......*......
..............
......**......
.....*..*..*..
**.......*....
............*.
.....*........
..............
..........**..

Generation = 19, Population = 0.
..............
..............
..............
..............
..............
..............
..............
..............
..............
..............
..............
..............
..............
..............

*** Life<ConwayCell> 7x23 ***

Generation = 0, Population = 21.
..............*........
...*...**..............
*....*.*.......*.*....*
.*.*..........*.......*
........*..............
*........*..*..........
.........*.........**..

Generation = 12, Population = 8.
......**...............
.....*..*..............
.....*..*..............
......**...............
.......................
.......................
.......................

Generation = 24, Population = 8.
......**...............
.....*..*..............
.....*..*..............
......**...............
.......................
.......................
.......................

*** Life<ConwayCell> 21x19 ***

Generation = 0, Population = 19.
.....*..........*..
...................
*..................
...................
...................
...................
.............*.....
*......*...........
...........*.......
...................
...................
...........*....*..
..............*....
.......*...........
..*............*...
...................
...............*...
...............*...
...*...............
...........*.......
...........*....*..

Generation = 6, Population = 0.
...................
...................
...................
...................
...................
...................
...................
...................
...................
...................
...................
...................
...................
...................
...................
...................
...................
...................
...................
...................
...................

Generation = 12, Population = 0.
...................
...................
...................
...................
...................
...................
...................
...................
...................
...................
...................
...................
...................
...................
...................
...................
...................
...................
...................
...................
...................

*** Life<ConwayCell> 28x10 ***

Generation = 0, Population = 27.
.....*....
........*.
..........
*.........
..........
.....*....
.........*
..........
..........
......*...
..........
*.........
....*.***.
...**.....
.*........
*.*.*....*
.........*
..........
.......**.
..*.......
....*.....
..........
......*.*.
..........
....*.....
...*......
..........
..........

Generation = 10, Population = 7.
..........
..........
..........
..........
..........
..........
..........
..........
..........
..........
.....**...
.....**...
..........
..........
..........
.***......
..........
..........
..........
..........
..........
..........
..........
..........
..........
..........
..........
..........

*** Life<ConwayCell> 6x30 ***

Generation = 0, Population = 15.
.*..........*.....*.......*...
.............*................
.............*......*....*....
..............................
......*......**...*.....*.....
.*....*.......................

*** Life<ConwayCell> 26x26 ***

Generation = 0, Population = 24.
...........*............*.
*.........................
......*...................
..........................
........*......*..........
.......*..................
.............*............
..........*...............
....*..............*......
..........................
..........................
..............*...........
.......*.....*............
..*.......................
..........................
..........................
.........................*
......*.....*..........*..
..........................
.....................*....
..................*.......
..........................
..........................
..........................
..**......................
.................*........

Generation = 15, Population = 0.
..........................
..........................
..........................
..........................
..........................
..........................
..........................
..........................
..........................
..........................
..........................
..........................
..........................
..........................
..........................
..........................
..........................
..........................
..........................
..........................
..........................
..........................
..........................
..........................
..........................
..........................

*** Life<ConwayCell> 28x8 ***

Generation = 0, Population = 8.
........
........
........
.*...*..
........
........
........
........
........
........
........
......*.
........
*.......
..**....
........
........
........
........
..*.....
........
......*.
........
........
........
........
........
........

Generation = 9, Population = 0.
........
........
........
........
........
........
........
........
........
........
........
........
........
........
........
........
........
........
........
........
........
........
........
........
........
........
........
........

Generation = 18, Population = 0.
........
........
........
........
........
........
........
........
........
........
........
........
........
........
........
........
........
........
........
........
........
........
........
........
........
........
........
........

Generation = 27, Population = 0.
........
........
........
........
........
........
........
........
........
........
........
........
........
........
........
........
........
........
........
........
........
........
........
........
........
........
........
........

*** Life<ConwayCell> 16x6 ***

Generation = 0, Population = 15.
*..*.*
..*...
......
......
....*.
......
......
*...*.
......
......
.*....
*...*.
..*...
......
*..*.*
.....*

Generation = 12, Population = 0.
......
......
......
......
......
......
......
......
......
......
......
......
......
......
......
......

*** Life<ConwayCell> 5x23 ***

Generation = 0, Population = 17.
.*..*........*......*..
...*....*...*..........
..............**.......
.**.*..*............*..
..*....*........*......

Generation = 23, Population = 0.
.......................
.......................
.......................
.......................
.......................

*** Life<ConwayCell> 5x21 ***

Generation = 0, Population = 14.
....*.....*..*.*.....
.........*...........
..........*.....*.*..
*......*...*....*....
......*............*.

Generation = 14, Population = 4.
.....................
.........**..........
.........**..........
.....................
.....................

*** Life<ConwayCell> 17x24 ***

Generation = 0, Population = 27.
.*.............*........
*...........*.........*.
.......*....*...........
................*.......
.......*................
..*......*..*....*.*....
...................*....
....*...................
........................
........................
........*.......*.......
..........*.......*.....
*.......................
..............*.........
.............*.....*....
.............*..........
..............*......*..

*** Life<ConwayCell> 28x30 ***

Generation = 0, Population = 28.
..........*...................
...*..*.......................
..............................
...................*..........
...*..........................
.................*.*..........
..............................
..............................
..............................
....................*.........
.....................*........
*.........................*...
...........*..*..........*....
..............................
..........*................*..
.........*....................
...............*..............
..............................
..............................
..............................
.........*....................
..............................
*.*......*....................
...........*..................
....*.........................
...................*..........
.*.............*..............
........*.....................

*** Life<ConwayCell> 5x16 ***

Generation = 0, Population = 17.
*.............*.
.*..*.*.*...*..*
*....*.....*.*..
.....*..*.......
.....*.....*.*..

*** Life<ConwayCell> 15x23 ***

Generation = 0, Population = 23.
.......................
...**.*.*..............
.......*.............*.
....*.*......*.*....*..
...............*.....*.
...........*....*.....*
...........*...........
..............*........
.......*...............
...*...................
.......................
................*......
.......................
...........*...........
.............*.........

Generation = 6, Population = 14.
.......................
......**...............
......**...............
..............**....**.
.............*..*...**.
..............**.......
.......................
.......................
.......................
.......................
.......................
.......................
.......................
.......................
.......................

Generation = 12, Population = 14.
.......................
......**...............
......**...............
..............**....**.
.............*..*...**.
..............**.......
.......................
.......................
.......................
.......................
.......................
.......................
.......................
.......................
.......................

Generation = 18, Population = 14.
.......................
......**...............
......**...............
..............**....**.
.............*..*...**.
..............**.......
.......................
.......................
.......................
.......................
.......................
.......................
.......................
.......................
.......................

*** Life<ConwayCell> 6x28 ***

Generation = 0, Population = 5.
............................
......*.....................
.....*......................
...........*....*...........
......*.....................
............................

Generation = 9, Population = 0.
............................
............................
............................
............................
............................
............................

Generation = 18, Population = 0.
............................
............................
............................
............................
............................
............................

*** Life<ConwayCell> 5x7 ***

Generation = 0, Population = 15.
*.....*
*.*..*.
*...*.*
..*.*..
***.*.*

*** Life<ConwayCell> 30x14 ***

Generation = 0, Population = 12.
..............
..............
..............
..............
..............
........*.....
..............
..........*...
....*.........
..............
.*............
..............
.*............
..............
..............
*..........*..
...........*..
.............*
..............
..............
..............
..............
*.............
...........*..
..............
..............
..............
..............
*.............
..............

*** Life<ConwayCell> 24x14 ***

Generation = 0, Population = 19.
..*...........
..............
..............
..*...........
..............
......*.......
..............
..*...........
..............
..............
..............
*.*.........*.
.....*........
.....*...*....
..............
.....*........
*.............
...*..........
..............
.......*......
.....*........
.*............
.....*......*.
....*.........

Generation = 9, Population = 0.
..............
..............
..............
..............
..............
..............
..............
..............
..............
..............
..............
..............
..............
..............
..............
..............
..............
..............
..............
..............
..............
..............
..............
..............

Generation = 18, Population = 0.
..............
..............
..............
..............
..............
..............
..............
..............
..............
..............
..............
..............
..............
..............
..............
..............
..............
..............
..............
..............
..............
..............
..............
..............

*** Life<ConwayCell> 28x30 ***

Generation = 0, Population = 5.
..............................
..............................
..............................
..............................
..............................
...*..........................
..............................
..............................
..............................
..............................
..............................
..*...........................
..............................
..............................
..............................
.........................*....
..............................
..............................
..............................
..............................
..............................
..............................
..............................
..............................
..*...........................
........................*.....
..............................
..............................

Generation = 18, Population = 0.
..............................
..............................
..............................
..............................
..............................
..............................
..............................
..............................
..............................
..............................
..............................
..............................
..............................
..............................
..............................
..............................
..............................
..............................
..............................
..............................
..............................
..............................
..............................
..............................
..............................
..............................
..............................
..............................

*** Life<ConwayCell> 13x28 ***

Generation = 0, Population = 30.
.*......**..................
.................*..........
......*......**.............
..*.....*....*...*.*........
................*...........
.*.........................*
..*................*..*.....
..*.............*...........
..................*........*
...*.........*......*.......
*....................*......
.............*..............
......*.........*...........

Generation = 5, Population = 4.
............................
............................
.............**.............
.............**.............
............................
............................
............................
............................
............................
............................
............................
............................
............................

Generation = 10, Population = 4.
............................
............................
.............**.............
.............**.............
............................
............................
............................
............................
............................
............................
............................
............................
............................

Generation = 15, Population = 4.
............................
............................
.............**.............
.............**.............
............................
............................
............................
............................
............................
............................
............................
............................
............................

Generation = 20, Population = 4.
............................
............................
.............**.............
.............**.............
............................
............................
............................
............................
............................
............................
............................
............................
............................

Generation = 25, Population = 4.
............................
............................
.............**.............
.............**.............
............................
............................
............................
............................
............................
............................
............................
............................
............................

*** Life<ConwayCell> 30x14 ***

Generation = 0, Population = 17.
..........*...
..............
..............
..............
..........*...
......*...*...
..............
.......*......
..............
..............
..............
..............
..........*...
...*..........
..............
........*.....
.......*......
*.............
.......*.....*
.....*..*.....
..............
..............
.....*........
..............
..............
..............
..............
......*.......
..............
....*.........

Generation = 10, Population = 0.
..............
..............
..............
..............
..............
..............
..............
..............
..............
..............
..............
..............
..............
..............
..............
..............
..............
..............
..............
..............
..............
..............
..............
..............
..............
..............
..............
..............
..............
..............

Generation = 20, Population = 0.
..............
..............
..............
..............
..............
..............
..............
..............
..............
..............
..............
..............
..............
..............
..............
..............
..............
..............
..............
..............
..............
..............
..............
..............
..............
..............
..............
..............
..............
..............

Generation = 30, Population = 0.
..............
..............
..............
..............
..............
..............
..............
..............
..............
..............
..............
..............
..............
..............
..............
..............
..............
..............
..............
..............
..............
..............
..............
..............
..............
..............
..............
..............
..............
..............
