*** Life<FredkinCell> 20x6 ***

Generation = 0, Population = 16.
--0---
------
-0----
0-----
------
-0----
------
------
------
----0-
----0-
----0-
------
------
--0--0
--0-0-
-000--
----0-
-0----
------

*** Life<FredkinCell> 2x10 ***

Generation = 0, Population = 12.
-0--000-0-
000000--0-

*** Life<FredkinCell> 10x12 ***

Generation = 0, Population = 16.
--0---------
-0-0--------
----00---0--
--0--0----0-
------------
-------0---0
------------
--------0-0-
----0-----0-
-0----------

*** Life<FredkinCell> 17x10 ***

Generation = 0, Population = 4.
----------
----------
----------
-------0--
----------
----------
--0-------
---------0
----------
----------
----------
----------
-----0----
----------
----------
----------
----------

*** Life<FredkinCell> 6x12 ***

Generation = 0, Population = 11.
-0------00--
0--------0--
------0--0--
0-0-----0---
------------
--------0---

*** Life<FredkinCell> 1x6 ***

Generation = 0, Population = 1.
----0-

*** Life<FredkinCell> 15x4 ***

Generation = 0, Population = 16.
-0-0
0---
00-0
----
----
---0
----
-0--
-0-0
----
----
----
00-0
---0
0--0

*** Life<FredkinCell> 19x14 ***

Generation = 0, Population = 11.
----------0---
--------------
0-------------
--------------
-0-----------0
--------------
--------------
--0-0---------
--------0-----
-------------0
--------------
-------------0
--------------
--------------
--------------
--------------
--------------
-----------0--
-------------0

*** Life<FredkinCell> 20x6 ***

Generation = 0, Population = 17.
------
------
----0-
0-----
0-----
---0--
---0--
---0--
--0-00
---00-
------
------
-0----
----0-
-0-000
------
------
------
------
------

*** Life<FredkinCell> 9x15 ***

Generation = 0, Population = 7.
-----0-0-------
------------0--
---------------
---------------
-------0-------
---------------
-------00------
--0------------
---------------

*** Life<FredkinCell> 12x16 ***

Generation = 0, Population = 13.
----------------
--0-------------
----------0-----
-----0-----0---0
----------------
----0--0-0-----0
-------------0--
----------0-----
----------0-----
----------------
----------------
--------0-------

*** Life<FredkinCell> 13x1 ***

Generation = 0, Population = 6.
-
0
-
-
0
0
0
0
-
-
-
-
0

*** Life<FredkinCell> 9x14 ***

Generation = 0, Population = 13.
0--0----000---
-----0--0----0
-----------0--
0-------------
--------------
--------------
--------------
-------------0
----------0--0

*** Life<FredkinCell> 20x10 ***

Generation = 0, Population = 17.
----------
----------
--------0-
----------
----------
-----0----
-00----0--
---00-----
-----00---
0-------0-
-------0--
----------
0---------
0---------
--------0-
-----0----
----------
----------
----------
--0-------

*** Life<FredkinCell> 18x1 ***

Generation = 0, Population = 5.
-
0
-
-
0
-
-
-
0
-
-
-
-
-
-
0
-
0

Generation = 2, Population = 5.
-
-
1
1
-
-
-
-
-
-
0
-
-
0
-
0
-
-

Generation = 4, Population = 10.
0
1
-
-
1
0
-
-
0
-
-
1
1
0
-
0
-
0

Generation = 6, Population = 5.
2
-
-
-
-
-
-
1
-
1
-
3
-
-
0
-
-
-

Generation = 8, Population = 8.
2
-
2
-
-
1
-
1
-
-
-
3
2
2
-
-
0
-

Generation = 10, Population = 9.
-
-
2
3
3
1
-
1
-
-
1
5
-
4
-
1
-
-

Generation = 12, Population = 12.
2
3
4
3
3
-
0
1
1
-
-
7
2
-
-
1
-
0

*** Life<FredkinCell> 18x5 ***

Generation = 0, Population = 14.
-----
--0--
--0-0
-----
-----
--000
-----
-----
-----
-----
-0---
-----
-----
-----
--00-
--0--
-0--0
-0-0-

*** Life<FredkinCell> 12x8 ***

Generation = 0, Population = 1.
--------
--------
--------
--------
--------
--------
--------
--------
0-------
--------
--------
--------

*** Life<FredkinCell> 16x19 ***

Generation = 0, Population = 6.
-------------------
0------------------
-------------------
-------------------
-------------------
-------------------
-------------------
----0--------------
-------------------
-----------------00
-------------------
-------------------
---------0---------
-------------------
--------0----------
-------------------

*** Life<FredkinCell> 12x8 ***

Generation = 0, Population = 11.
--00----
---0--0-
---0----
-0------
--------
0-----0-
--------
--------
--0-----
--------
0------0
--------

*** Life<FredkinCell> 16x9 ***

Generation = 0, Population = 15.
---0-----
------0-0
-------0-
--------0
---------
-0-0-----
-0-------
-----0---
----0----
---------
---------
---------
--0------
--------0
----0-0--
0--------

*** Life<FredkinCell> 6x14 ***

Generation = 0, Population = 16.
------0-0-----
---00-------0-
------0-------
--0--00--0--0-
-0---0--------
0--00---------

*** Life<FredkinCell> 9x19 ***

Generation = 0, Population = 12.
--0----------------
-00----------------
--------0----------
-------------------
------0--------0---
-0-----------------
-------------------
----0-0------------
------0------0---0-

*** Life<FredkinCell> 19x12 ***

Generation = 0, Population = 12.
------------
---0--------
------------
------------
---------0--
--0---------
-----------0
------------
--------0---
------------
------------
--0--------0
------------
------------
----0--0----
----0-------
------------
------0-----
----0-------

*** Life<FredkinCell> 4x8 ***

Generation = 0, Population = 4.
--------
-0------
--0--0--
---0----

*** Life<FredkinCell> 15x9 ***

Generation = 0, Population = 7.
---------
--0------
---------
---------
---------
---------
---------
---------
---------
---------
---------
------0--
0-----0--
---------
-000-----

*** Life<FredkinCell> 11x13 ***

Generation = 0, Population = 12.
-------------
----0------0-
-------------
-----0---0---
0------------
-------------
------0-----0
-----0---0---
-------------
-----------0-
0----0-------

*** Life<FredkinCell> 12x4 ***

Generation = 0, Population = 8.
-0--
--0-
-0--
---0
----
----
----
--0-
0---
----
----
0--0

*** Life<FredkinCell> 6x3 ***

Generation = 0, Population = 6.
---
---
--0
0--
0-0
0-0

*** Life<FredkinCell> 3x18 ***

Generation = 0, Population = 14.
-------00-0---0-00
--0---0-----0--00-
------0---0----0--

*** Life<FredkinCell> 18x8 ***

Generation = 0, Population = 6.
--------
---0----
--------
--------
--------
--------
-------0
--------
0-------
--------
-------0
--------
-------0
--------
--------
--------
--------
----0---
